{
  "__inputs": [

  ],
  "__requires": [

  ],
  "annotations": {
    "list": [

    ]
  },
  "description": "Uploaded by https://gitlab.com/gitlab-com/runbooks/-/jobs/8096318834 at Wed Oct 16 05:32:01 UTC 2024",
  "editable": true,
  "gnetId": null,
  "graphTooltip": 1,
  "hideControls": false,
  "id": null,
  "links": [

  ],
  "panels": [
    {
      "content": "This dashboard shows a summary of deployments on gitlab.com.\n\nThis section of the dashboard is governed by the `target SLO` variable.\n\n- __# deployments__ counts the number of deployments in the time range`\n- __Target SLO__ is the amount of seconds we consider acceptable for a complete deployment from gstg-cny (staging canary) to production (gprd), it can be one of the following values:\n  - `12600`: 3.5h\n  - `14400`: 4h\n  - `16200`: 4.5h\n  - `18000`: 5h\n  - `19800`: 5.5h\n  - `21600`: 6h\n  - `23400`: 6.5h\n  - `25200`: 7h\n  - `27000`: 7.5h\n  - `28800`: 8h\n  - `30600`: 8.5h\n  - `32400`: 9h\n  - `34200`: 9.5\n  - `36000`: 10h\n- __Apdex Score__ shows the percentage of deploymens in the time range that matched the `target SLO`.\n- __Apdex__ shows the Apdex score over time\n",
      "datasource": null,
      "gridPos": {
        "h": 10,
        "w": 24,
        "x": 0,
        "y": 0
      },
      "id": 2,
      "mode": "markdown",
      "title": "Deployment SLO Explainer",
      "type": "text"
    },
    {
      "datasource": "$PROMETHEUS_DS",
      "description": "",
      "fieldConfig": {
        "defaults": {
          "decimals": 0,
          "displayName": "",
          "links": [

          ],
          "mappings": [

          ],
          "thresholds": {
            "mode": "absolute",
            "steps": [
              {
                "color": "red",
                "value": null
              },
              {
                "color": "green",
                "value": 1
              }
            ]
          },
          "unit": ""
        }
      },
      "gridPos": {
        "h": 4,
        "w": 8,
        "x": 0,
        "y": 100
      },
      "id": 3,
      "links": [

      ],
      "options": {
        "colorMode": "value",
        "graphMode": "none",
        "justifyMode": "auto",
        "orientation": "vertical",
        "reduceOptions": {
          "calcs": [
            "lastNotNull"
          ],
          "fields": "",
          "values": false
        },
        "textMode": "auto"
      },
      "pluginVersion": "7",
      "targets": [
        {
          "expr": "sum(increase(delivery_deployment_duration_seconds_count{job=\"delivery-metrics\",status=\"success\"}[$__range]))",
          "format": "time_series",
          "instant": true,
          "interval": "1m",
          "intervalFactor": 1,
          "legendFormat": "",
          "refId": "A"
        }
      ],
      "title": "# deployments",
      "transformations": [

      ],
      "transparent": false,
      "type": "stat"
    },
    {
      "datasource": "$PROMETHEUS_DS",
      "description": "",
      "fieldConfig": {
        "defaults": {
          "decimals": 0,
          "displayName": "",
          "links": [

          ],
          "mappings": [

          ],
          "thresholds": {
            "mode": "absolute",
            "steps": [
              {
                "color": "",
                "value": null
              }
            ]
          },
          "unit": "s"
        }
      },
      "gridPos": {
        "h": 4,
        "w": 8,
        "x": 8,
        "y": 100
      },
      "id": 4,
      "links": [

      ],
      "options": {
        "colorMode": "none",
        "graphMode": "none",
        "justifyMode": "auto",
        "orientation": "vertical",
        "reduceOptions": {
          "calcs": [
            "lastNotNull"
          ],
          "fields": "/^le$/",
          "values": false
        },
        "textMode": "value"
      },
      "pluginVersion": "7",
      "targets": [
        {
          "expr": "topk(1, count(delivery_deployment_duration_seconds_bucket{job=\"delivery-metrics\",le=\"$target_slo\"}) by (le))",
          "format": "table",
          "instant": false,
          "interval": "1m",
          "intervalFactor": 1,
          "legendFormat": "{{le}}",
          "refId": "A"
        }
      ],
      "title": "Target SLO",
      "transformations": [

      ],
      "transparent": false,
      "type": "stat"
    },
    {
      "datasource": "$PROMETHEUS_DS",
      "description": "",
      "fieldConfig": {
        "defaults": {
          "decimals": 1,
          "displayName": "",
          "links": [

          ],
          "mappings": [

          ],
          "thresholds": {
            "mode": "absolute",
            "steps": [
              {
                "color": "red",
                "value": null
              },
              {
                "color": "yellow",
                "value": 0.5
              },
              {
                "color": "green",
                "value": 0.95
              }
            ]
          },
          "unit": "percentunit"
        }
      },
      "gridPos": {
        "h": 4,
        "w": 8,
        "x": 16,
        "y": 100
      },
      "id": 5,
      "links": [

      ],
      "options": {
        "colorMode": "background",
        "graphMode": "none",
        "justifyMode": "auto",
        "orientation": "vertical",
        "reduceOptions": {
          "calcs": [
            "lastNotNull"
          ],
          "fields": "",
          "values": false
        },
        "textMode": "auto"
      },
      "pluginVersion": "7",
      "targets": [
        {
          "expr": "sum(rate(delivery_deployment_duration_seconds_bucket{job=\"delivery-metrics\",status=\"success\",le=\"$target_slo\"}[$__range]))\n/\nsum(rate(delivery_deployment_duration_seconds_count{job=\"delivery-metrics\",status=\"success\"}[$__range]))\n",
          "format": "time_series",
          "instant": true,
          "interval": "1m",
          "intervalFactor": 1,
          "legendFormat": "",
          "refId": "A"
        }
      ],
      "title": "Apdex score",
      "transformations": [

      ],
      "transparent": false,
      "type": "stat"
    },
    {
      "aliasColors": {
      },
      "bars": false,
      "dashLength": 10,
      "dashes": false,
      "datasource": null,
      "decimals": 1,
      "fill": 1,
      "fillGradient": 0,
      "gridPos": {
        "h": 10,
        "w": 12,
        "x": 0,
        "y": 200
      },
      "id": 6,
      "legend": {
        "alignAsTable": true,
        "avg": true,
        "current": true,
        "max": true,
        "min": true,
        "rightSide": false,
        "show": true,
        "sideWidth": null,
        "total": false,
        "values": true
      },
      "lines": true,
      "linewidth": 1,
      "links": [

      ],
      "nullPointMode": "null",
      "percentage": false,
      "pointradius": 5,
      "points": false,
      "renderer": "flot",
      "repeat": null,
      "seriesOverrides": [

      ],
      "spaceLength": 10,
      "stack": false,
      "steppedLine": false,
      "targets": [
        {
          "expr": "max(delivery_deployment_duration_last_seconds) by (deployment_type, status)",
          "format": "time_series",
          "intervalFactor": 2,
          "legendFormat": "Duration",
          "refId": "A"
        }
      ],
      "thresholds": [

      ],
      "timeFrom": null,
      "timeShift": null,
      "title": "Deployment duration",
      "tooltip": {
        "shared": true,
        "sort": 0,
        "value_type": "individual"
      },
      "type": "graph",
      "xaxis": {
        "buckets": null,
        "mode": "time",
        "name": null,
        "show": true,
        "values": [

        ]
      },
      "yaxes": [
        {
          "decimals": 1,
          "format": "clocks",
          "label": "Duration",
          "logBase": 1,
          "max": null,
          "min": null,
          "show": true
        },
        {
          "decimals": 1,
          "format": "short",
          "label": null,
          "logBase": 1,
          "max": null,
          "min": null,
          "show": true
        }
      ]
    },
    {
      "aliasColors": {
      },
      "bars": false,
      "dashLength": 10,
      "dashes": false,
      "datasource": "$PROMETHEUS_DS",
      "decimals": 0,
      "description": "Apdex is a measure of deployments that complete within an acceptable threshold duration. Actual threshold can be adjusted using the target SLO variable above in this page. Higher is better.",
      "fill": 0,
      "fillGradient": 0,
      "gridPos": {
        "h": 10,
        "w": 12,
        "x": 12,
        "y": 200
      },
      "id": 7,
      "legend": {
        "alignAsTable": true,
        "avg": true,
        "current": true,
        "hideEmpty": true,
        "max": true,
        "min": true,
        "rightSide": false,
        "show": true,
        "sideWidth": null,
        "total": false,
        "values": true
      },
      "lines": true,
      "linewidth": 2,
      "links": [

      ],
      "nullPointMode": "null",
      "percentage": false,
      "pointradius": 5,
      "points": false,
      "renderer": "flot",
      "repeat": null,
      "seriesOverrides": [

      ],
      "spaceLength": 10,
      "stack": false,
      "steppedLine": false,
      "targets": [
        {
          "expr": "clamp_min(clamp_max(sum(rate(delivery_deployment_duration_seconds_bucket{job=\"delivery-metrics\",status=\"success\",le=\"$target_slo\"}[$__range]))\n/\nsum(rate(delivery_deployment_duration_seconds_count{job=\"delivery-metrics\",status=\"success\"}[$__range]))\n,1),0)\n",
          "format": "time_series",
          "interval": "1m",
          "intervalFactor": 1,
          "legendFormat": "",
          "refId": "A"
        }
      ],
      "thresholds": [

      ],
      "timeFrom": null,
      "timeShift": null,
      "title": "Apdex",
      "tooltip": {
        "shared": true,
        "sort": 1,
        "value_type": "individual"
      },
      "type": "graph",
      "xaxis": {
        "buckets": null,
        "mode": "time",
        "name": null,
        "show": true,
        "values": [

        ]
      },
      "yaxes": [
        {
          "format": "percentunit",
          "label": "% Deployments w/ satisfactory duration",
          "logBase": 1,
          "max": 1,
          "min": null,
          "show": true
        },
        {
          "format": "short",
          "label": null,
          "logBase": 1,
          "max": 1,
          "min": 0,
          "show": false
        }
      ]
    },
    {
      "content": "Made with ❤️ and [Grafonnet](https://github.com/grafana/grafonnet-lib). [Contribute to this dashboard on GitLab.com](https://gitlab.com/gitlab-com/runbooks/blob/master/dashboards)\n",
      "datasource": null,
      "gridPos": {
        "h": 2,
        "w": 24,
        "x": 0,
        "y": 110000
      },
      "id": 8,
      "mode": "markdown",
      "title": "Source",
      "type": "text"
    }
  ],
  "refresh": "",
  "rows": [

  ],
  "schemaVersion": 16,
  "style": "light",
  "tags": [
    "managed",
    "delivery",
    "release"
  ],
  "templating": {
    "list": [
      {
        "current": {
          "text": "Mimir - Gitlab Ops",
          "value": "Mimir - Gitlab Ops"
        },
        "hide": 0,
        "label": null,
        "name": "PROMETHEUS_DS",
        "options": [

        ],
        "query": "prometheus",
        "refresh": 1,
        "regex": "",
        "type": "datasource"
      },
      {
        "allValue": null,
        "current": {
          "text": "28800",
          "value": "28800"
        },
        "datasource": "Mimir - Gitlab Ops",
        "hide": 0,
        "includeAll": false,
        "label": "target SLO",
        "multi": false,
        "name": "target_slo",
        "options": [

        ],
        "query": "label_values(delivery_deployment_duration_seconds_bucket, le)",
        "refresh": 1,
        "regex": "/\\d+/",
        "sort": 3,
        "tagValuesQuery": "",
        "tags": [

        ],
        "tagsQuery": "",
        "type": "query",
        "useTags": false
      }
    ]
  },
  "time": {
    "from": "now-30d",
    "to": "now"
  },
  "timepicker": {
    "refresh_intervals": [
      "1m",
      "5m",
      "10m",
      "15m",
      "30m"
    ],
    "time_options": [
      "5m",
      "15m",
      "1h",
      "6h",
      "12h",
      "24h",
      "2d",
      "7d",
      "30d"
    ]
  },
  "timezone": "utc",
  "title": "delivery: Deployment SLO",
  "uid": "delivery-deployment_slo",
  "version": 3840
}