{
  "__inputs": [

  ],
  "__requires": [

  ],
  "annotations": {
    "list": [

    ]
  },
  "description": "Uploaded by https://gitlab.com/gitlab-com/runbooks/-/jobs/8096318834 at Wed Oct 16 05:32:01 UTC 2024",
  "editable": true,
  "gnetId": null,
  "graphTooltip": 1,
  "hideControls": false,
  "id": null,
  "links": [

  ],
  "panels": [
    {
      "datasource": {
        "type": "datasource",
        "uid": "-- Mixed --"
      },
      "gridPos": {
        "h": 7,
        "w": 24,
        "x": 0,
        "y": 0
      },
      "id": 2,
      "options": {
        "content": "# Deployment Blockers\n\nDeployment failures are currently automatically captured under [release/tasks issues](https://gitlab.com/gitlab-org/release/tasks/-/issues).\nEach week a report is generated to keep track of the deployment blockers of the GitLab.com environments, release managers are responsible for labeling these failures with appropriate `RootCause::*` labels\n\nThis dashboard tracks the trend of recurring root causes for deployment blockers. Each root cause is displayed in separate rows with three panels: one for the count of blockers, one for `gprd` hours blocked, and one for `gstg` hours blocked. At the top, there is an overview of the failure types, including the total calculations for the entire specified time window.\n\nLinks:\n- [List of root causes](https://gitlab.com/gitlab-org/release/tasks/-/labels?subscribed=&sort=relevance&search=RootCause)\n- [Deployments metrics review](https://gitlab.com/groups/gitlab-com/gl-infra/-/epics/1192)\n",
        "mode": "markdown"
      },
      "pluginVersion": "v10.4.0",
      "title": "",
      "type": "text"
    },
    {
      "collapse": false,
      "collapsed": false,
      "gridPos": {
        "h": 1,
        "w": 24,
        "x": 0,
        "y": 7
      },
      "id": 3,
      "panels": [

      ],
      "repeat": null,
      "repeatIteration": null,
      "repeatRowId": null,
      "showTitle": true,
      "title": "Overview",
      "titleSize": "h6",
      "type": "row"
    },
    {
      "datasource": {
        "type": "datasource",
        "uid": "-- Mixed --"
      },
      "fieldConfig": {
        "defaults": {
          "color": {
            "mode": "thresholds"
          },
          "displayName": "blockers_count",
          "thresholds": {
            "mode": "absolute",
            "steps": [
              {
                "color": "green",
                "value": null
              }
            ]
          }
        }
      },
      "gridPos": {
        "h": 10,
        "w": 8,
        "x": 0,
        "y": 8
      },
      "id": 4,
      "options": {
        "legend": {
          "calcs": [
            "sum"
          ],
          "displayMode": "table",
          "placement": "bottom",
          "showLegend": true
        },
        "orientation": "horizontal"
      },
      "pluginVersion": "v10.4.0",
      "targets": [
        {
          "datasource": {
            "type": "prometheus",
            "uid": "$PROMETHEUS_DS"
          },
          "expr": "max by (week, root_cause) (last_over_time(delivery_deployment_blocker_count{root_cause=~\".+\", root_cause!=\"RootCause::FlakyTest\"}[1d])) != 0",
          "format": "table",
          "legendFormat": "{{root_cause}}"
        }
      ],
      "title": "Total Blockers Count per Root Cause",
      "transformations": [
        {
          "id": "groupBy",
          "options": {
            "fields": {
              "Value": {
                "aggregations": [
                  "lastNotNull"
                ],
                "operation": "aggregate"
              },
              "root_cause": {
                "aggregations": [

                ],
                "operation": "groupby"
              },
              "week": {
                "aggregations": [

                ],
                "operation": "groupby"
              }
            }
          }
        },
        {
          "id": "groupBy",
          "options": {
            "fields": {
              "Value (lastNotNull)": {
                "aggregations": [
                  "sum"
                ],
                "operation": "aggregate"
              },
              "root_cause": {
                "aggregations": [

                ],
                "operation": "groupby"
              }
            }
          }
        }
      ],
      "type": "barchart"
    },
    {
      "datasource": {
        "type": "datasource",
        "uid": "-- Mixed --"
      },
      "fieldConfig": {
        "defaults": {
          "color": {
            "mode": "thresholds"
          },
          "displayName": "gprd_hours_blocked",
          "thresholds": {
            "mode": "absolute",
            "steps": [
              {
                "color": "green",
                "value": null
              }
            ]
          }
        }
      },
      "gridPos": {
        "h": 10,
        "w": 8,
        "x": 8,
        "y": 8
      },
      "id": 5,
      "options": {
        "legend": {
          "calcs": [
            "sum"
          ],
          "displayMode": "table",
          "placement": "bottom",
          "showLegend": true
        },
        "orientation": "horizontal"
      },
      "pluginVersion": "v10.4.0",
      "targets": [
        {
          "datasource": {
            "type": "prometheus",
            "uid": "$PROMETHEUS_DS"
          },
          "expr": "max by (week, root_cause) (last_over_time(delivery_deployment_hours_blocked{root_cause=~\".+\", root_cause!=\"RootCause::FlakyTest\", target_env=\"gprd\"}[1d])) != 0",
          "format": "table",
          "legendFormat": "{{root_cause}}"
        }
      ],
      "title": "Total gprd Hours Blocked per Root Cause",
      "transformations": [
        {
          "id": "groupBy",
          "options": {
            "fields": {
              "Value": {
                "aggregations": [
                  "lastNotNull"
                ],
                "operation": "aggregate"
              },
              "root_cause": {
                "aggregations": [

                ],
                "operation": "groupby"
              },
              "week": {
                "aggregations": [

                ],
                "operation": "groupby"
              }
            }
          }
        },
        {
          "id": "groupBy",
          "options": {
            "fields": {
              "Value (lastNotNull)": {
                "aggregations": [
                  "sum"
                ],
                "operation": "aggregate"
              },
              "root_cause": {
                "aggregations": [

                ],
                "operation": "groupby"
              }
            }
          }
        }
      ],
      "type": "barchart"
    },
    {
      "datasource": {
        "type": "datasource",
        "uid": "-- Mixed --"
      },
      "fieldConfig": {
        "defaults": {
          "color": {
            "mode": "thresholds"
          },
          "displayName": "gstg_hours_blocked",
          "thresholds": {
            "mode": "absolute",
            "steps": [
              {
                "color": "green",
                "value": null
              }
            ]
          }
        }
      },
      "gridPos": {
        "h": 10,
        "w": 8,
        "x": 16,
        "y": 8
      },
      "id": 6,
      "options": {
        "legend": {
          "calcs": [
            "sum"
          ],
          "displayMode": "table",
          "placement": "bottom",
          "showLegend": true
        },
        "orientation": "horizontal"
      },
      "pluginVersion": "v10.4.0",
      "targets": [
        {
          "datasource": {
            "type": "prometheus",
            "uid": "$PROMETHEUS_DS"
          },
          "expr": "max by (week, root_cause) (last_over_time(delivery_deployment_hours_blocked{root_cause=~\".+\", root_cause!=\"RootCause::FlakyTest\", target_env=\"gstg\"}[1d])) != 0",
          "format": "table",
          "legendFormat": "{{root_cause}}"
        }
      ],
      "title": "Total gstg Hours Blocked per Root Cause",
      "transformations": [
        {
          "id": "groupBy",
          "options": {
            "fields": {
              "Value": {
                "aggregations": [
                  "lastNotNull"
                ],
                "operation": "aggregate"
              },
              "root_cause": {
                "aggregations": [

                ],
                "operation": "groupby"
              },
              "week": {
                "aggregations": [

                ],
                "operation": "groupby"
              }
            }
          }
        },
        {
          "id": "groupBy",
          "options": {
            "fields": {
              "Value (lastNotNull)": {
                "aggregations": [
                  "sum"
                ],
                "operation": "aggregate"
              },
              "root_cause": {
                "aggregations": [

                ],
                "operation": "groupby"
              }
            }
          }
        }
      ],
      "type": "barchart"
    },
    {
      "collapse": false,
      "collapsed": false,
      "gridPos": {
        "h": 1,
        "w": 24,
        "x": 0,
        "y": 18
      },
      "id": 7,
      "panels": [

      ],
      "repeat": "root_cause",
      "repeatIteration": null,
      "repeatRowId": null,
      "showTitle": true,
      "title": "$root_cause",
      "titleSize": "h6",
      "type": "row"
    },
    {
      "datasource": {
        "type": "datasource",
        "uid": "-- Mixed --"
      },
      "fieldConfig": {
        "defaults": {
          "color": {
            "mode": "palette-classic"
          },
          "custom": {
            "axisBorderShow": true,
            "drawStyle": "line",
            "lineInterpolation": "linear",
            "lineWidth": 1,
            "showPoints": "always",
            "spanNulls": true
          },
          "decimals": 0,
          "displayName": "blockers_count",
          "thresholds": {
            "mode": "absolute",
            "steps": [
              {
                "color": "green",
                "value": null
              }
            ]
          },
          "unit": "short"
        },
        "overrides": [
          {
            "matcher": {
              "id": "byName",
              "options": "week_index"
            },
            "properties": [
              {
                "id": "custom.axisLabel",
                "value": "week_index"
              },
              {
                "id": "custom.axisPlacement",
                "value": "hidden"
              }
            ]
          }
        ]
      },
      "gridPos": {
        "h": 9,
        "w": 8,
        "x": 0,
        "y": 19
      },
      "id": 8,
      "options": {
        "legend": {
          "displayMode": "list",
          "placement": "bottom"
        },
        "xField": "week_index"
      },
      "pluginVersion": "v10.4.0",
      "targets": [
        {
          "datasource": {
            "type": "prometheus",
            "uid": "$PROMETHEUS_DS"
          },
          "expr": "max by (week, root_cause) (last_over_time(delivery_deployment_blocker_count{root_cause=\"$root_cause\"}[1d]))",
          "format": "table"
        }
      ],
      "title": "Blockers Count for $root_cause",
      "transformations": [
        {
          "id": "groupBy",
          "options": {
            "fields": {
              "Value": {
                "aggregations": [
                  "last"
                ],
                "operation": "aggregate"
              },
              "root_cause": {
                "aggregations": [

                ],
                "operation": null
              },
              "week": {
                "aggregations": [

                ],
                "operation": "groupby"
              }
            }
          }
        },
        {
          "id": "calculateField",
          "options": {
            "alias": "count",
            "binary": {
              "left": "week"
            },
            "mode": "index",
            "reduce": {
              "reducer": "sum"
            }
          }
        },
        {
          "id": "calculateField",
          "options": {
            "alias": "week_index",
            "binary": {
              "left": "count",
              "right": "1"
            },
            "mode": "binary",
            "reduce": {
              "reducer": "sum"
            }
          }
        },
        {
          "id": "organize",
          "options": {
            "excludeByName": {
              "Time": false,
              "count": true
            },
            "includeByName": {
            },
            "indexByName": {
            },
            "renameByName": {
            }
          }
        }
      ],
      "type": "trend"
    },
    {
      "datasource": {
        "type": "datasource",
        "uid": "-- Mixed --"
      },
      "fieldConfig": {
        "defaults": {
          "color": {
            "mode": "palette-classic"
          },
          "custom": {
            "axisBorderShow": true,
            "drawStyle": "line",
            "lineInterpolation": "linear",
            "lineWidth": 1,
            "showPoints": "always",
            "spanNulls": true
          },
          "decimals": 0,
          "displayName": "gprd_hours_blocked",
          "thresholds": {
            "mode": "absolute",
            "steps": [
              {
                "color": "green",
                "value": null
              }
            ]
          },
          "unit": "short"
        },
        "overrides": [
          {
            "matcher": {
              "id": "byName",
              "options": "week_index"
            },
            "properties": [
              {
                "id": "custom.axisLabel",
                "value": "week_index"
              },
              {
                "id": "custom.axisPlacement",
                "value": "hidden"
              }
            ]
          }
        ]
      },
      "gridPos": {
        "h": 9,
        "w": 8,
        "x": 8,
        "y": 19
      },
      "id": 9,
      "options": {
        "legend": {
          "displayMode": "list",
          "placement": "bottom"
        },
        "xField": "week_index"
      },
      "pluginVersion": "v10.4.0",
      "targets": [
        {
          "datasource": {
            "type": "prometheus",
            "uid": "$PROMETHEUS_DS"
          },
          "expr": "max by (week, root_cause) (last_over_time(delivery_deployment_hours_blocked{root_cause=\"$root_cause\", target_env=\"gprd\"}[1d]))",
          "format": "table"
        }
      ],
      "title": "gprd Hours Blocked for $root_cause",
      "transformations": [
        {
          "id": "groupBy",
          "options": {
            "fields": {
              "Value": {
                "aggregations": [
                  "last"
                ],
                "operation": "aggregate"
              },
              "root_cause": {
                "aggregations": [

                ],
                "operation": null
              },
              "week": {
                "aggregations": [

                ],
                "operation": "groupby"
              }
            }
          }
        },
        {
          "id": "calculateField",
          "options": {
            "alias": "count",
            "binary": {
              "left": "week"
            },
            "mode": "index",
            "reduce": {
              "reducer": "sum"
            }
          }
        },
        {
          "id": "calculateField",
          "options": {
            "alias": "week_index",
            "binary": {
              "left": "count",
              "right": "1"
            },
            "mode": "binary",
            "reduce": {
              "reducer": "sum"
            }
          }
        },
        {
          "id": "organize",
          "options": {
            "excludeByName": {
              "Time": false,
              "count": true
            },
            "includeByName": {
            },
            "indexByName": {
            },
            "renameByName": {
            }
          }
        }
      ],
      "type": "trend"
    },
    {
      "datasource": {
        "type": "datasource",
        "uid": "-- Mixed --"
      },
      "fieldConfig": {
        "defaults": {
          "color": {
            "mode": "palette-classic"
          },
          "custom": {
            "axisBorderShow": true,
            "drawStyle": "line",
            "lineInterpolation": "linear",
            "lineWidth": 1,
            "showPoints": "always",
            "spanNulls": true
          },
          "decimals": 0,
          "displayName": "gstg_hours_blocked",
          "thresholds": {
            "mode": "absolute",
            "steps": [
              {
                "color": "green",
                "value": null
              }
            ]
          },
          "unit": "short"
        },
        "overrides": [
          {
            "matcher": {
              "id": "byName",
              "options": "week_index"
            },
            "properties": [
              {
                "id": "custom.axisLabel",
                "value": "week_index"
              },
              {
                "id": "custom.axisPlacement",
                "value": "hidden"
              }
            ]
          }
        ]
      },
      "gridPos": {
        "h": 9,
        "w": 8,
        "x": 16,
        "y": 19
      },
      "id": 10,
      "options": {
        "legend": {
          "displayMode": "list",
          "placement": "bottom"
        },
        "xField": "week_index"
      },
      "pluginVersion": "v10.4.0",
      "targets": [
        {
          "datasource": {
            "type": "prometheus",
            "uid": "$PROMETHEUS_DS"
          },
          "expr": "max by (week, root_cause) (last_over_time(delivery_deployment_hours_blocked{root_cause=\"$root_cause\", target_env=\"gstg\"}[1d]))",
          "format": "table"
        }
      ],
      "title": "gstg Hours Blocked for $root_cause",
      "transformations": [
        {
          "id": "groupBy",
          "options": {
            "fields": {
              "Value": {
                "aggregations": [
                  "last"
                ],
                "operation": "aggregate"
              },
              "root_cause": {
                "aggregations": [

                ],
                "operation": null
              },
              "week": {
                "aggregations": [

                ],
                "operation": "groupby"
              }
            }
          }
        },
        {
          "id": "calculateField",
          "options": {
            "alias": "count",
            "binary": {
              "left": "week"
            },
            "mode": "index",
            "reduce": {
              "reducer": "sum"
            }
          }
        },
        {
          "id": "calculateField",
          "options": {
            "alias": "week_index",
            "binary": {
              "left": "count",
              "right": "1"
            },
            "mode": "binary",
            "reduce": {
              "reducer": "sum"
            }
          }
        },
        {
          "id": "organize",
          "options": {
            "excludeByName": {
              "Time": false,
              "count": true
            },
            "includeByName": {
            },
            "indexByName": {
            },
            "renameByName": {
            }
          }
        }
      ],
      "type": "trend"
    },
    {
      "datasource": {
        "type": "datasource",
        "uid": "-- Mixed --"
      },
      "fieldConfig": {
        "defaults": {
          "color": {
            "mode": "thresholds"
          },
          "custom": {
            "filterable": true
          }
        }
      },
      "gridPos": {
        "h": 7,
        "w": 24,
        "x": 0,
        "y": 28
      },
      "id": 11,
      "options": {
        "showHeader": true
      },
      "pluginVersion": "v10.4.0",
      "targets": [
        {
          "datasource": {
            "type": "prometheus",
            "uid": "$PROMETHEUS_DS"
          },
          "expr": "max by (week, root_cause) (last_over_time(delivery_deployment_blocker_count{root_cause=\"$root_cause\"}[1d]))",
          "format": "table"
        },
        {
          "datasource": {
            "type": "prometheus",
            "uid": "$PROMETHEUS_DS"
          },
          "expr": "max by (week, root_cause) (last_over_time(delivery_deployment_hours_blocked{root_cause=\"$root_cause\", target_env=\"gprd\"}[1d]))",
          "format": "table"
        },
        {
          "datasource": {
            "type": "prometheus",
            "uid": "$PROMETHEUS_DS"
          },
          "expr": "max by (week, root_cause) (last_over_time(delivery_deployment_hours_blocked{root_cause=\"$root_cause\", target_env=\"gstg\"}[1d]))",
          "format": "table"
        }
      ],
      "title": "",
      "transformations": [
        {
          "id": "merge",
          "options": {
          }
        },
        {
          "id": "sortBy",
          "options": {
            "fields": {
            },
            "sort": [
              {
                "field": "week"
              }
            ]
          }
        },
        {
          "id": "groupBy",
          "options": {
            "fields": {
              "Value #A": {
                "aggregations": [
                  "lastNotNull"
                ],
                "operation": "aggregate"
              },
              "Value #B": {
                "aggregations": [
                  "lastNotNull"
                ],
                "operation": "aggregate"
              },
              "Value #C": {
                "aggregations": [
                  "lastNotNull"
                ],
                "operation": "aggregate"
              },
              "root_cause": {
                "aggregations": [

                ],
                "operation": "groupby"
              },
              "week": {
                "aggregations": [

                ],
                "operation": "groupby"
              }
            }
          }
        },
        {
          "id": "groupBy",
          "options": {
            "fields": {
              "Value #A": {
                "aggregations": [
                  "sum"
                ],
                "operation": "aggregate"
              },
              "Value #A (lastNotNull)": {
                "aggregations": [
                  "sum"
                ],
                "operation": "aggregate"
              },
              "Value #B": {
                "aggregations": [
                  "sum"
                ],
                "operation": "aggregate"
              },
              "Value #B (lastNotNull)": {
                "aggregations": [
                  "sum"
                ],
                "operation": "aggregate"
              },
              "Value #C": {
                "aggregations": [
                  "sum"
                ],
                "operation": "aggregate"
              },
              "Value #C (lastNotNull)": {
                "aggregations": [
                  "sum"
                ],
                "operation": "aggregate"
              },
              "root_cause": {
                "aggregations": [

                ],
                "operation": "aggregate"
              },
              "week": {
                "aggregations": [

                ],
                "operation": "groupby"
              },
              "week_index": {
                "aggregations": [

                ]
              }
            }
          }
        },
        {
          "id": "calculateField",
          "options": {
            "alias": "count",
            "mode": "index",
            "reduce": {
              "reducer": "sum"
            }
          }
        },
        {
          "id": "calculateField",
          "options": {
            "alias": "week_index",
            "binary": {
              "left": "count",
              "right": "1"
            },
            "mode": "binary",
            "reduce": {
              "reducer": "sum"
            }
          }
        },
        {
          "id": "organize",
          "options": {
            "excludeByName": {
              "count": true
            },
            "includeByName": {
            },
            "indexByName": {
            },
            "renameByName": {
              "Value #A (lastNotNull) (sum)": "blockers_count",
              "Value #A (sum)": "blockers_count",
              "Value #B (lastNotNull) (sum)": "gprd_hours_blocked",
              "Value #B (sum)": "gprd_hours_blocked",
              "Value #C (lastNotNull) (sum)": "gstg_hours_blocked",
              "Value #C (sum)": "gstg_hours_blocked"
            }
          }
        }
      ],
      "type": "table"
    },
    {
      "collapse": false,
      "collapsed": false,
      "gridPos": {
        "h": 1,
        "w": 24,
        "x": 0,
        "y": 100000
      },
      "id": 12,
      "panels": [

      ],
      "repeat": null,
      "repeatIteration": null,
      "repeatRowId": null,
      "showTitle": true,
      "title": "",
      "titleSize": "h6",
      "type": "row"
    },
    {
      "content": "Made with ❤️ and [Grafonnet](https://github.com/grafana/grafonnet-lib). [Contribute to this dashboard on GitLab.com](https://gitlab.com/gitlab-com/runbooks/blob/master/dashboards)\n",
      "datasource": null,
      "gridPos": {
        "h": 2,
        "w": 24,
        "x": 0,
        "y": 110000
      },
      "id": 13,
      "mode": "markdown",
      "title": "Source",
      "type": "text"
    }
  ],
  "refresh": "",
  "rows": [

  ],
  "schemaVersion": 16,
  "style": "light",
  "tags": [
    "managed",
    "delivery",
    "release"
  ],
  "templating": {
    "list": [
      {
        "current": {
          "text": "Mimir - Gitlab Ops",
          "value": "Mimir - Gitlab Ops"
        },
        "hide": 0,
        "label": null,
        "name": "PROMETHEUS_DS",
        "options": [

        ],
        "query": "prometheus",
        "refresh": 1,
        "regex": "",
        "type": "datasource"
      },
      {
        "allValue": null,
        "current": {
        },
        "datasource": "$PROMETHEUS_DS",
        "hide": 0,
        "includeAll": true,
        "label": null,
        "multi": true,
        "name": "root_cause",
        "options": [

        ],
        "query": "query_result(max by (root_cause) (last_over_time(delivery_deployment_blocker_count{root_cause!=\"RootCause::FlakyTest\"}[$__range]) > 0))",
        "refresh": 0,
        "regex": "/root_cause=\"(?<text>[^\"]+)/g",
        "sort": 1,
        "tagValuesQuery": "",
        "tags": [

        ],
        "tagsQuery": "",
        "type": "query",
        "useTags": false
      }
    ]
  },
  "time": {
    "from": "now-90d",
    "to": "now"
  },
  "timepicker": {
    "refresh_intervals": [
      "1m",
      "5m",
      "10m",
      "15m",
      "30m"
    ],
    "time_options": [
      "5m",
      "15m",
      "1h",
      "6h",
      "12h",
      "24h",
      "2d",
      "7d",
      "30d"
    ]
  },
  "timezone": "utc",
  "title": "delivery: Deployment Blockers",
  "uid": "delivery-deployment_blockers",
  "version": 358
}