{
  "__inputs": [

  ],
  "__requires": [

  ],
  "annotations": {
    "list": [
      {
        "builtIn": 1,
        "datasource": "-- Grafana --",
        "enable": true,
        "hide": false,
        "iconColor": "#96D98D",
        "name": "deploy",
        "showIn": 0,
        "tags": [
          "deploy",
          "$environment"
        ],
        "type": "tags"
      },
      {
        "builtIn": 1,
        "datasource": "-- Grafana --",
        "enable": false,
        "hide": false,
        "iconColor": "#FFEE52",
        "name": "canary-deploy",
        "showIn": 0,
        "tags": [
          "deploy",
          "${environment}-cny"
        ],
        "type": "tags"
      },
      {
        "builtIn": 1,
        "datasource": "-- Grafana --",
        "enable": false,
        "hide": false,
        "iconColor": "#CA95E5",
        "name": "feature-flags",
        "showIn": 0,
        "tags": [
          "feature-flag",
          "${environment}"
        ],
        "type": "tags"
      }
    ]
  },
  "description": "Uploaded by https://gitlab.com/gitlab-com/runbooks/-/jobs/8096318834 at Wed Oct 16 05:31:52 UTC 2024",
  "editable": false,
  "gnetId": null,
  "graphTooltip": 1,
  "hideControls": false,
  "id": null,
  "links": [
    {
      "asDropdown": true,
      "icon": "external link",
      "includeVars": false,
      "keepTime": true,
      "tags": "",
      "targetBlank": false,
      "title": "Platform Triage",
      "type": "link",
      "url": "https://dashboards.gitlab.net/d/general-triage/platform-triage?orgId=1"
    }
  ],
  "panels": [
    {
      "datasource": "$PROMETHEUS_DS",
      "description": "",
      "fieldConfig": {
        "defaults": {
          "decimals": 0,
          "displayName": "Status",
          "links": [

          ],
          "mappings": [
            {
              "id": 0,
              "options": {
                "0": {
                  "color": "black",
                  "index": 0,
                  "text": "Healthy"
                },
                "1": {
                  "color": "orange",
                  "index": 1,
                  "text": "Warning: 1h deteriorating"
                },
                "10": {
                  "color": "orange",
                  "index": 10,
                  "text": "Warning: 6h recovering, 1h recovering"
                },
                "11": {
                  "color": "red",
                  "index": 11,
                  "text": "Degraded: 6h recovering, 1h degraded"
                },
                "12": {
                  "color": "red",
                  "index": 12,
                  "text": "Degraded: 6h degraded"
                },
                "13": {
                  "color": "red",
                  "index": 13,
                  "text": "Degraded: 6h degraded, 1h deteriorating"
                },
                "14": {
                  "color": "red",
                  "index": 14,
                  "text": "Degraded: 6h degraded, 1h recovering"
                },
                "15": {
                  "color": "red",
                  "index": 15,
                  "text": "Degraded: 6h degraded, 1h degraded"
                },
                "2": {
                  "color": "orange",
                  "index": 2,
                  "text": "Warning: 1h recovering"
                },
                "3": {
                  "color": "red",
                  "index": 3,
                  "text": "Degraded: 1h degraded"
                },
                "4": {
                  "color": "orange",
                  "index": 4,
                  "text": "Warning: 6h deteriorating"
                },
                "5": {
                  "color": "orange",
                  "index": 5,
                  "text": "Warning: 6h deteriorating, 1h deteriorating"
                },
                "6": {
                  "color": "orange",
                  "index": 6,
                  "text": "Warning: 6h deteriorating, 1h recovering"
                },
                "7": {
                  "color": "red",
                  "index": 7,
                  "text": "Degraded: 6h deteriorating, 1h degraded"
                },
                "8": {
                  "color": "orange",
                  "index": 8,
                  "text": "Warning: 6h recovering"
                },
                "9": {
                  "color": "orange",
                  "index": 9,
                  "text": "Warning: 6h recovering, 1h deteriorating"
                }
              },
              "type": "value"
            }
          ],
          "thresholds": {
            "mode": "absolute",
            "steps": [
              {
                "color": "black",
                "value": 0
              },
              {
                "color": "orange",
                "value": 1
              },
              {
                "color": "orange",
                "value": 2
              },
              {
                "color": "red",
                "value": 3
              },
              {
                "color": "orange",
                "value": 4
              },
              {
                "color": "orange",
                "value": 5
              },
              {
                "color": "orange",
                "value": 6
              },
              {
                "color": "red",
                "value": 7
              },
              {
                "color": "orange",
                "value": 8
              },
              {
                "color": "orange",
                "value": 9
              },
              {
                "color": "orange",
                "value": 10
              },
              {
                "color": "red",
                "value": 11
              },
              {
                "color": "red",
                "value": 12
              },
              {
                "color": "red",
                "value": 13
              },
              {
                "color": "red",
                "value": 14
              },
              {
                "color": "red",
                "value": 15
              }
            ]
          },
          "unit": "none"
        }
      },
      "gridPos": {
        "h": 6,
        "w": 6,
        "x": 0,
        "y": 0
      },
      "id": 2,
      "links": [

      ],
      "options": {
        "colorMode": "background",
        "graphMode": "none",
        "justifyMode": "auto",
        "orientation": "vertical",
        "reduceOptions": {
          "calcs": [
            "lastNotNull"
          ],
          "fields": "",
          "values": false
        },
        "textMode": "auto"
      },
      "pluginVersion": "7",
      "targets": [
        {
          "expr": "sum(\n  label_replace(\n    vector(0) and on() (gitlab_service_node_apdex:ratio_1h{environment=\"$environment\",fqdn=\"$fqdn\",monitor=\"global\",shard=\"$shard\",stage=\"$stage\",type=\"$type\"}),\n    \"period\", \"na\", \"\", \"\"\n  )\n  or\n  label_replace(\n    vector(1) and on () (gitlab_service_node_apdex:ratio_5m{environment=\"$environment\",fqdn=\"$fqdn\",monitor=\"global\",shard=\"$shard\",stage=\"$stage\",type=\"$type\"} < on(tier, type, __tenant_id__) group_left() (1 - (14.4 * (1 - slo:min:events:gitlab_service_apdex:ratio{component=\"\",monitor=\"global\",shard=\"$shard\",type=\"$type\"})))),\n    \"period\", \"5m\", \"\", \"\"\n  )\n  or\n  label_replace(\n    vector(2) and on () (gitlab_service_node_apdex:ratio_1h{environment=\"$environment\",fqdn=\"$fqdn\",monitor=\"global\",shard=\"$shard\",stage=\"$stage\",type=\"$type\"} < on(tier, type, __tenant_id__) group_left() (1 - (14.4 * (1 - slo:min:events:gitlab_service_apdex:ratio{component=\"\",monitor=\"global\",shard=\"$shard\",type=\"$type\"})))),\n    \"period\", \"1h\", \"\", \"\"\n  )\n  or\n  label_replace(\n    vector(4) and on () (gitlab_service_node_apdex:ratio_30m{environment=\"$environment\",fqdn=\"$fqdn\",monitor=\"global\",shard=\"$shard\",stage=\"$stage\",type=\"$type\"} < on(tier, type, __tenant_id__) group_left() (1 - (6 * (1 - slo:min:events:gitlab_service_apdex:ratio{component=\"\",monitor=\"global\",shard=\"$shard\",type=\"$type\"})))),\n    \"period\", \"30m\", \"\", \"\"\n  )\n  or\n  label_replace(\n    vector(8) and on () (gitlab_service_node_apdex:ratio_6h{environment=\"$environment\",fqdn=\"$fqdn\",monitor=\"global\",shard=\"$shard\",stage=\"$stage\",type=\"$type\"} < on(tier, type, __tenant_id__) group_left() (1 - (6 * (1 - slo:min:events:gitlab_service_apdex:ratio{component=\"\",monitor=\"global\",shard=\"$shard\",type=\"$type\"})))),\n    \"period\", \"6h\", \"\", \"\"\n  )\n)\n",
          "format": "time_series",
          "instant": true,
          "interval": "1m",
          "intervalFactor": 1,
          "legendFormat": "SLO Analysis | Latency/Apdex",
          "refId": "A"
        }
      ],
      "title": "",
      "transformations": [

      ],
      "transparent": false,
      "type": "stat"
    },
    {
      "datasource": "$PROMETHEUS_DS",
      "description": "Availability",
      "fieldConfig": {
        "defaults": {
          "decimals": 2,
          "links": [

          ],
          "mappings": [

          ],
          "max": 1,
          "min": 0,
          "thresholds": {
            "mode": "absolute",
            "steps": [
              {
                "color": "red",
                "value": 0
              },
              {
                "color": "light-red",
                "value": 0.95
              },
              {
                "color": "orange",
                "value": 0.99
              },
              {
                "color": "light-orange",
                "value": 0.995
              },
              {
                "color": "yellow",
                "value": 0.9994
              },
              {
                "color": "light-yellow",
                "value": 0.9995
              },
              {
                "color": "green",
                "value": 0.9998
              }
            ]
          },
          "unit": "percentunit"
        }
      },
      "gridPos": {
        "h": 6,
        "w": 6,
        "x": 6,
        "y": 0
      },
      "id": 3,
      "links": [

      ],
      "options": {
        "colorMode": "background",
        "graphMode": "none",
        "justifyMode": "auto",
        "orientation": "auto",
        "reduceOptions": {
          "calcs": [
            "last"
          ],
          "fields": "",
          "values": true
        },
        "textMode": "auto"
      },
      "pluginVersion": "7",
      "targets": [
        {
          "expr": "avg(slo:max:events:gitlab_service_errors:ratio{monitor=\"global\",type=\"$type\"}) by (type)",
          "format": "time_series",
          "instant": true,
          "interval": "1m",
          "intervalFactor": 1,
          "legendFormat": "{{ type }} service monitoring SLO",
          "refId": "A"
        }
      ],
      "title": "",
      "transparent": false,
      "type": "stat"
    },
    {
      "content": "The SLO for this service will determine the thresholds (indicated by the dotted lines)\nin the following graphs. Over time, we expect these SLOs to become stricter (more nines) by\nimproving the reliability of our service.\n\n**For more details of this technique, be sure to the Alerting on SLOs chapter of the\n[Google SRE Workbook](https://landing.google.com/sre/workbook/chapters/alerting-on-slos/)**\n",
      "datasource": null,
      "gridPos": {
        "h": 6,
        "w": 12,
        "x": 12,
        "y": 0
      },
      "id": 4,
      "mode": "markdown",
      "title": "Help",
      "type": "text"
    },
    {
      "datasource": {
        "type": "datasource",
        "uid": "-- Mixed --"
      },
      "fieldConfig": {
        "defaults": {
          "unit": "percentunit"
        },
        "overrides": [
          {
            "matcher": {
              "id": "byName",
              "options": "6h error burn rate"
            },
            "properties": [
              {
                "id": "color",
                "value": {
                  "fixedColor": "dark-purple",
                  "mode": "shades"
                }
              },
              {
                "id": "custom.fillBelowTo",
                "value": "error rate confidence lower boundary 6h"
              },
              {
                "id": "custom.lineWidth",
                "value": 3
              }
            ]
          },
          {
            "matcher": {
              "id": "byName",
              "options": "error rate confidence lower boundary 6h"
            },
            "properties": [
              {
                "id": "color",
                "value": {
                  "fixedColor": "semi-dark-purple",
                  "mode": "shades"
                }
              },
              {
                "id": "custom.lineWidth",
                "value": 0
              }
            ]
          },
          {
            "matcher": {
              "id": "byName",
              "options": "30m error burn rate"
            },
            "properties": [
              {
                "id": "color",
                "value": {
                  "fixedColor": "light-purple",
                  "mode": "shades"
                }
              },
              {
                "id": "custom.fillBelowTo",
                "value": "error rate confidence lower boundary 30m"
              },
              {
                "id": "custom.lineWidth",
                "value": 2
              }
            ]
          },
          {
            "matcher": {
              "id": "byName",
              "options": "error rate confidence lower boundary 30m"
            },
            "properties": [
              {
                "id": "color",
                "value": {
                  "fixedColor": "super-light-purple",
                  "mode": "shades"
                }
              },
              {
                "id": "custom.lineWidth",
                "value": 0
              }
            ]
          },
          {
            "matcher": {
              "id": "byName",
              "options": "1h error burn rate"
            },
            "properties": [
              {
                "id": "color",
                "value": {
                  "fixedColor": "dark-yellow",
                  "mode": "shades"
                }
              },
              {
                "id": "custom.fillBelowTo",
                "value": "error rate confidence lower boundary 1h"
              },
              {
                "id": "custom.lineWidth",
                "value": 3
              }
            ]
          },
          {
            "matcher": {
              "id": "byName",
              "options": "error rate confidence lower boundary 1h"
            },
            "properties": [
              {
                "id": "color",
                "value": {
                  "fixedColor": "semi-dark-yellow",
                  "mode": "shades"
                }
              },
              {
                "id": "custom.lineWidth",
                "value": 0
              }
            ]
          },
          {
            "matcher": {
              "id": "byName",
              "options": "5m error burn rate"
            },
            "properties": [
              {
                "id": "color",
                "value": {
                  "fixedColor": "light-yellow",
                  "mode": "shades"
                }
              },
              {
                "id": "custom.fillBelowTo",
                "value": "error rate confidence lower boundary 5m"
              },
              {
                "id": "custom.lineWidth",
                "value": 2
              }
            ]
          },
          {
            "matcher": {
              "id": "byName",
              "options": "error rate confidence lower boundary 5m"
            },
            "properties": [
              {
                "id": "color",
                "value": {
                  "fixedColor": "super-light-yellow",
                  "mode": "shades"
                }
              },
              {
                "id": "custom.lineWidth",
                "value": 0
              }
            ]
          },
          {
            "matcher": {
              "id": "byName",
              "options": "6h error burn threshold"
            },
            "properties": [
              {
                "id": "color",
                "value": {
                  "fixedColor": "semi-dark-red",
                  "mode": "shades"
                }
              },
              {
                "id": "custom.lineStyle",
                "value": {
                  "dash": [
                    10,
                    10
                  ],
                  "fill": "dash"
                }
              },
              {
                "id": "custom.lineWidth",
                "value": 2
              }
            ]
          },
          {
            "matcher": {
              "id": "byName",
              "options": "1h error burn threshold"
            },
            "properties": [
              {
                "id": "color",
                "value": {
                  "fixedColor": "super-light-red",
                  "mode": "shades"
                }
              },
              {
                "id": "custom.lineStyle",
                "value": {
                  "dash": [
                    10,
                    10
                  ],
                  "fill": "dash"
                }
              },
              {
                "id": "custom.lineWidth",
                "value": 2
              }
            ]
          }
        ]
      },
      "gridPos": {
        "h": 10,
        "w": 18,
        "x": 0,
        "y": 100
      },
      "id": 5,
      "interval": "15s",
      "maxDataPoints": 8192,
      "pluginVersion": "v10.4.0",
      "targets": [
        {
          "datasource": {
            "type": "prometheus",
            "uid": "$PROMETHEUS_DS"
          },
          "expr": "gitlab_service_node_errors:ratio_1h{environment=\"$environment\",fqdn=\"$fqdn\",monitor=\"global\",shard=\"$shard\",stage=\"$stage\",type=\"$type\"}\n",
          "legendFormat": "1h error burn rate"
        },
        {
          "datasource": {
            "type": "prometheus",
            "uid": "$PROMETHEUS_DS"
          },
          "expr": "gitlab_service_node_errors:ratio_5m{environment=\"$environment\",fqdn=\"$fqdn\",monitor=\"global\",shard=\"$shard\",stage=\"$stage\",type=\"$type\"}\n",
          "legendFormat": "5m error burn rate"
        },
        {
          "datasource": {
            "type": "prometheus",
            "uid": "$PROMETHEUS_DS"
          },
          "expr": "(14.4 * avg(slo:max:events:gitlab_service_errors:ratio{monitor=\"global\", type=\"$type\"})) unless (vector($proposed_slo) > 0)",
          "legendFormat": "1h error burn threshold"
        },
        {
          "datasource": {
            "type": "prometheus",
            "uid": "$PROMETHEUS_DS"
          },
          "expr": "14.4 * (1 - $proposed_slo)",
          "legendFormat": "Proposed SLO @ 1h burn"
        },
        {
          "datasource": {
            "type": "prometheus",
            "uid": "$PROMETHEUS_DS"
          },
          "expr": "(gitlab_service_node_ops:rate_5m{environment=\"$environment\",fqdn=\"$fqdn\",monitor=\"global\",shard=\"$shard\",stage=\"$stage\",type=\"$type\"} == 0)\nor\nclamp(\n  (\n    (\n      (gitlab_service_node_errors:rate_5m{environment=\"$environment\",fqdn=\"$fqdn\",monitor=\"global\",shard=\"$shard\",stage=\"$stage\",type=\"$type\"} / gitlab_service_node_ops:rate_5m{environment=\"$environment\",fqdn=\"$fqdn\",monitor=\"global\",shard=\"$shard\",stage=\"$stage\",type=\"$type\"})\n      +\n      ($confidence * $confidence) / (2 * (gitlab_service_node_ops:rate_5m{environment=\"$environment\",fqdn=\"$fqdn\",monitor=\"global\",shard=\"$shard\",stage=\"$stage\",type=\"$type\"} * 300))\n    )\n    -\n    $confidence\n    *\n    sqrt(\n      (\n        (gitlab_service_node_errors:rate_5m{environment=\"$environment\",fqdn=\"$fqdn\",monitor=\"global\",shard=\"$shard\",stage=\"$stage\",type=\"$type\"} / gitlab_service_node_ops:rate_5m{environment=\"$environment\",fqdn=\"$fqdn\",monitor=\"global\",shard=\"$shard\",stage=\"$stage\",type=\"$type\"}) * (1 - (gitlab_service_node_errors:rate_5m{environment=\"$environment\",fqdn=\"$fqdn\",monitor=\"global\",shard=\"$shard\",stage=\"$stage\",type=\"$type\"} / gitlab_service_node_ops:rate_5m{environment=\"$environment\",fqdn=\"$fqdn\",monitor=\"global\",shard=\"$shard\",stage=\"$stage\",type=\"$type\"}))\n        +\n        ($confidence * $confidence) / (4 * (gitlab_service_node_ops:rate_5m{environment=\"$environment\",fqdn=\"$fqdn\",monitor=\"global\",shard=\"$shard\",stage=\"$stage\",type=\"$type\"} * 300))\n      )\n      /\n      (gitlab_service_node_ops:rate_5m{environment=\"$environment\",fqdn=\"$fqdn\",monitor=\"global\",shard=\"$shard\",stage=\"$stage\",type=\"$type\"} * 300)\n    )\n  )\n  /\n  (1 + ($confidence * $confidence) / (gitlab_service_node_ops:rate_5m{environment=\"$environment\",fqdn=\"$fqdn\",monitor=\"global\",shard=\"$shard\",stage=\"$stage\",type=\"$type\"} * 300)),\n  0, 1\n)\n",
          "legendFormat": "error rate confidence lower boundary 5m"
        },
        {
          "datasource": {
            "type": "prometheus",
            "uid": "$PROMETHEUS_DS"
          },
          "expr": "(gitlab_service_node_ops:rate_1h{environment=\"$environment\",fqdn=\"$fqdn\",monitor=\"global\",shard=\"$shard\",stage=\"$stage\",type=\"$type\"} == 0)\nor\nclamp(\n  (\n    (\n      (gitlab_service_node_errors:rate_1h{environment=\"$environment\",fqdn=\"$fqdn\",monitor=\"global\",shard=\"$shard\",stage=\"$stage\",type=\"$type\"} / gitlab_service_node_ops:rate_1h{environment=\"$environment\",fqdn=\"$fqdn\",monitor=\"global\",shard=\"$shard\",stage=\"$stage\",type=\"$type\"})\n      +\n      ($confidence * $confidence) / (2 * (gitlab_service_node_ops:rate_1h{environment=\"$environment\",fqdn=\"$fqdn\",monitor=\"global\",shard=\"$shard\",stage=\"$stage\",type=\"$type\"} * 3600))\n    )\n    -\n    $confidence\n    *\n    sqrt(\n      (\n        (gitlab_service_node_errors:rate_1h{environment=\"$environment\",fqdn=\"$fqdn\",monitor=\"global\",shard=\"$shard\",stage=\"$stage\",type=\"$type\"} / gitlab_service_node_ops:rate_1h{environment=\"$environment\",fqdn=\"$fqdn\",monitor=\"global\",shard=\"$shard\",stage=\"$stage\",type=\"$type\"}) * (1 - (gitlab_service_node_errors:rate_1h{environment=\"$environment\",fqdn=\"$fqdn\",monitor=\"global\",shard=\"$shard\",stage=\"$stage\",type=\"$type\"} / gitlab_service_node_ops:rate_1h{environment=\"$environment\",fqdn=\"$fqdn\",monitor=\"global\",shard=\"$shard\",stage=\"$stage\",type=\"$type\"}))\n        +\n        ($confidence * $confidence) / (4 * (gitlab_service_node_ops:rate_1h{environment=\"$environment\",fqdn=\"$fqdn\",monitor=\"global\",shard=\"$shard\",stage=\"$stage\",type=\"$type\"} * 3600))\n      )\n      /\n      (gitlab_service_node_ops:rate_1h{environment=\"$environment\",fqdn=\"$fqdn\",monitor=\"global\",shard=\"$shard\",stage=\"$stage\",type=\"$type\"} * 3600)\n    )\n  )\n  /\n  (1 + ($confidence * $confidence) / (gitlab_service_node_ops:rate_1h{environment=\"$environment\",fqdn=\"$fqdn\",monitor=\"global\",shard=\"$shard\",stage=\"$stage\",type=\"$type\"} * 3600)),\n  0, 1\n)\n",
          "legendFormat": "error rate confidence lower boundary 1h"
        },
        {
          "datasource": {
            "type": "prometheus",
            "uid": "$PROMETHEUS_DS"
          },
          "expr": "gitlab_service_node_errors:ratio_6h{environment=\"$environment\",fqdn=\"$fqdn\",monitor=\"global\",shard=\"$shard\",stage=\"$stage\",type=\"$type\"}\n",
          "legendFormat": "6h error burn rate"
        },
        {
          "datasource": {
            "type": "prometheus",
            "uid": "$PROMETHEUS_DS"
          },
          "expr": "gitlab_service_node_errors:ratio_30m{environment=\"$environment\",fqdn=\"$fqdn\",monitor=\"global\",shard=\"$shard\",stage=\"$stage\",type=\"$type\"}\n",
          "legendFormat": "30m error burn rate"
        },
        {
          "datasource": {
            "type": "prometheus",
            "uid": "$PROMETHEUS_DS"
          },
          "expr": "(6 * avg(slo:max:events:gitlab_service_errors:ratio{monitor=\"global\", type=\"$type\"})) unless (vector($proposed_slo) > 0)",
          "legendFormat": "6h error burn threshold"
        },
        {
          "datasource": {
            "type": "prometheus",
            "uid": "$PROMETHEUS_DS"
          },
          "expr": "6 * (1 - $proposed_slo)",
          "legendFormat": "Proposed SLO @ 6h burn"
        },
        {
          "datasource": {
            "type": "prometheus",
            "uid": "$PROMETHEUS_DS"
          },
          "expr": "(gitlab_service_node_ops:rate_30m{environment=\"$environment\",fqdn=\"$fqdn\",monitor=\"global\",shard=\"$shard\",stage=\"$stage\",type=\"$type\"} == 0)\nor\nclamp(\n  (\n    (\n      (gitlab_service_node_errors:rate_30m{environment=\"$environment\",fqdn=\"$fqdn\",monitor=\"global\",shard=\"$shard\",stage=\"$stage\",type=\"$type\"} / gitlab_service_node_ops:rate_30m{environment=\"$environment\",fqdn=\"$fqdn\",monitor=\"global\",shard=\"$shard\",stage=\"$stage\",type=\"$type\"})\n      +\n      ($confidence * $confidence) / (2 * (gitlab_service_node_ops:rate_30m{environment=\"$environment\",fqdn=\"$fqdn\",monitor=\"global\",shard=\"$shard\",stage=\"$stage\",type=\"$type\"} * 1800))\n    )\n    -\n    $confidence\n    *\n    sqrt(\n      (\n        (gitlab_service_node_errors:rate_30m{environment=\"$environment\",fqdn=\"$fqdn\",monitor=\"global\",shard=\"$shard\",stage=\"$stage\",type=\"$type\"} / gitlab_service_node_ops:rate_30m{environment=\"$environment\",fqdn=\"$fqdn\",monitor=\"global\",shard=\"$shard\",stage=\"$stage\",type=\"$type\"}) * (1 - (gitlab_service_node_errors:rate_30m{environment=\"$environment\",fqdn=\"$fqdn\",monitor=\"global\",shard=\"$shard\",stage=\"$stage\",type=\"$type\"} / gitlab_service_node_ops:rate_30m{environment=\"$environment\",fqdn=\"$fqdn\",monitor=\"global\",shard=\"$shard\",stage=\"$stage\",type=\"$type\"}))\n        +\n        ($confidence * $confidence) / (4 * (gitlab_service_node_ops:rate_30m{environment=\"$environment\",fqdn=\"$fqdn\",monitor=\"global\",shard=\"$shard\",stage=\"$stage\",type=\"$type\"} * 1800))\n      )\n      /\n      (gitlab_service_node_ops:rate_30m{environment=\"$environment\",fqdn=\"$fqdn\",monitor=\"global\",shard=\"$shard\",stage=\"$stage\",type=\"$type\"} * 1800)\n    )\n  )\n  /\n  (1 + ($confidence * $confidence) / (gitlab_service_node_ops:rate_30m{environment=\"$environment\",fqdn=\"$fqdn\",monitor=\"global\",shard=\"$shard\",stage=\"$stage\",type=\"$type\"} * 1800)),\n  0, 1\n)\n",
          "legendFormat": "error rate confidence lower boundary 30m"
        }
      ],
      "title": "Multi-window, multi-burn-rates",
      "type": "timeseries"
    },
    {
      "content": "# Multi-window, multi-burn-rates\n\nThe alert will fire when both of the green solid series cross the green dotted threshold, or\nboth of the blue solid series cross the blue dotted threshold.\n",
      "datasource": null,
      "gridPos": {
        "h": 10,
        "w": 6,
        "x": 18,
        "y": 100
      },
      "id": 6,
      "mode": "markdown",
      "title": "Help",
      "type": "text"
    },
    {
      "datasource": {
        "type": "datasource",
        "uid": "-- Mixed --"
      },
      "fieldConfig": {
        "defaults": {
          "unit": "percentunit"
        },
        "overrides": [
          {
            "matcher": {
              "id": "byName",
              "options": "6h error burn rate"
            },
            "properties": [
              {
                "id": "color",
                "value": {
                  "fixedColor": "dark-purple",
                  "mode": "shades"
                }
              },
              {
                "id": "custom.fillBelowTo",
                "value": "error rate confidence lower boundary 6h"
              },
              {
                "id": "custom.lineWidth",
                "value": 3
              }
            ]
          },
          {
            "matcher": {
              "id": "byName",
              "options": "error rate confidence lower boundary 6h"
            },
            "properties": [
              {
                "id": "color",
                "value": {
                  "fixedColor": "semi-dark-purple",
                  "mode": "shades"
                }
              },
              {
                "id": "custom.lineWidth",
                "value": 0
              }
            ]
          },
          {
            "matcher": {
              "id": "byName",
              "options": "30m error burn rate"
            },
            "properties": [
              {
                "id": "color",
                "value": {
                  "fixedColor": "light-purple",
                  "mode": "shades"
                }
              },
              {
                "id": "custom.fillBelowTo",
                "value": "error rate confidence lower boundary 30m"
              },
              {
                "id": "custom.lineWidth",
                "value": 2
              }
            ]
          },
          {
            "matcher": {
              "id": "byName",
              "options": "error rate confidence lower boundary 30m"
            },
            "properties": [
              {
                "id": "color",
                "value": {
                  "fixedColor": "super-light-purple",
                  "mode": "shades"
                }
              },
              {
                "id": "custom.lineWidth",
                "value": 0
              }
            ]
          },
          {
            "matcher": {
              "id": "byName",
              "options": "1h error burn rate"
            },
            "properties": [
              {
                "id": "color",
                "value": {
                  "fixedColor": "dark-yellow",
                  "mode": "shades"
                }
              },
              {
                "id": "custom.fillBelowTo",
                "value": "error rate confidence lower boundary 1h"
              },
              {
                "id": "custom.lineWidth",
                "value": 3
              }
            ]
          },
          {
            "matcher": {
              "id": "byName",
              "options": "error rate confidence lower boundary 1h"
            },
            "properties": [
              {
                "id": "color",
                "value": {
                  "fixedColor": "semi-dark-yellow",
                  "mode": "shades"
                }
              },
              {
                "id": "custom.lineWidth",
                "value": 0
              }
            ]
          },
          {
            "matcher": {
              "id": "byName",
              "options": "5m error burn rate"
            },
            "properties": [
              {
                "id": "color",
                "value": {
                  "fixedColor": "light-yellow",
                  "mode": "shades"
                }
              },
              {
                "id": "custom.fillBelowTo",
                "value": "error rate confidence lower boundary 5m"
              },
              {
                "id": "custom.lineWidth",
                "value": 2
              }
            ]
          },
          {
            "matcher": {
              "id": "byName",
              "options": "error rate confidence lower boundary 5m"
            },
            "properties": [
              {
                "id": "color",
                "value": {
                  "fixedColor": "super-light-yellow",
                  "mode": "shades"
                }
              },
              {
                "id": "custom.lineWidth",
                "value": 0
              }
            ]
          },
          {
            "matcher": {
              "id": "byName",
              "options": "6h error burn threshold"
            },
            "properties": [
              {
                "id": "color",
                "value": {
                  "fixedColor": "semi-dark-red",
                  "mode": "shades"
                }
              },
              {
                "id": "custom.lineStyle",
                "value": {
                  "dash": [
                    10,
                    10
                  ],
                  "fill": "dash"
                }
              },
              {
                "id": "custom.lineWidth",
                "value": 2
              }
            ]
          },
          {
            "matcher": {
              "id": "byName",
              "options": "1h error burn threshold"
            },
            "properties": [
              {
                "id": "color",
                "value": {
                  "fixedColor": "super-light-red",
                  "mode": "shades"
                }
              },
              {
                "id": "custom.lineStyle",
                "value": {
                  "dash": [
                    10,
                    10
                  ],
                  "fill": "dash"
                }
              },
              {
                "id": "custom.lineWidth",
                "value": 2
              }
            ]
          }
        ]
      },
      "gridPos": {
        "h": 10,
        "w": 18,
        "x": 0,
        "y": 110
      },
      "id": 7,
      "interval": "15s",
      "maxDataPoints": 8192,
      "pluginVersion": "v10.4.0",
      "targets": [
        {
          "datasource": {
            "type": "prometheus",
            "uid": "$PROMETHEUS_DS"
          },
          "expr": "gitlab_service_node_errors:ratio_1h{environment=\"$environment\",fqdn=\"$fqdn\",monitor=\"global\",shard=\"$shard\",stage=\"$stage\",type=\"$type\"}\n",
          "legendFormat": "1h error burn rate"
        },
        {
          "datasource": {
            "type": "prometheus",
            "uid": "$PROMETHEUS_DS"
          },
          "expr": "gitlab_service_node_errors:ratio_5m{environment=\"$environment\",fqdn=\"$fqdn\",monitor=\"global\",shard=\"$shard\",stage=\"$stage\",type=\"$type\"}\n",
          "legendFormat": "5m error burn rate"
        },
        {
          "datasource": {
            "type": "prometheus",
            "uid": "$PROMETHEUS_DS"
          },
          "expr": "(14.4 * avg(slo:max:events:gitlab_service_errors:ratio{monitor=\"global\", type=\"$type\"})) unless (vector($proposed_slo) > 0)",
          "legendFormat": "1h error burn threshold"
        },
        {
          "datasource": {
            "type": "prometheus",
            "uid": "$PROMETHEUS_DS"
          },
          "expr": "14.4 * (1 - $proposed_slo)",
          "legendFormat": "Proposed SLO @ 1h burn"
        },
        {
          "datasource": {
            "type": "prometheus",
            "uid": "$PROMETHEUS_DS"
          },
          "expr": "(gitlab_service_node_ops:rate_5m{environment=\"$environment\",fqdn=\"$fqdn\",monitor=\"global\",shard=\"$shard\",stage=\"$stage\",type=\"$type\"} == 0)\nor\nclamp(\n  (\n    (\n      (gitlab_service_node_errors:rate_5m{environment=\"$environment\",fqdn=\"$fqdn\",monitor=\"global\",shard=\"$shard\",stage=\"$stage\",type=\"$type\"} / gitlab_service_node_ops:rate_5m{environment=\"$environment\",fqdn=\"$fqdn\",monitor=\"global\",shard=\"$shard\",stage=\"$stage\",type=\"$type\"})\n      +\n      ($confidence * $confidence) / (2 * (gitlab_service_node_ops:rate_5m{environment=\"$environment\",fqdn=\"$fqdn\",monitor=\"global\",shard=\"$shard\",stage=\"$stage\",type=\"$type\"} * 300))\n    )\n    -\n    $confidence\n    *\n    sqrt(\n      (\n        (gitlab_service_node_errors:rate_5m{environment=\"$environment\",fqdn=\"$fqdn\",monitor=\"global\",shard=\"$shard\",stage=\"$stage\",type=\"$type\"} / gitlab_service_node_ops:rate_5m{environment=\"$environment\",fqdn=\"$fqdn\",monitor=\"global\",shard=\"$shard\",stage=\"$stage\",type=\"$type\"}) * (1 - (gitlab_service_node_errors:rate_5m{environment=\"$environment\",fqdn=\"$fqdn\",monitor=\"global\",shard=\"$shard\",stage=\"$stage\",type=\"$type\"} / gitlab_service_node_ops:rate_5m{environment=\"$environment\",fqdn=\"$fqdn\",monitor=\"global\",shard=\"$shard\",stage=\"$stage\",type=\"$type\"}))\n        +\n        ($confidence * $confidence) / (4 * (gitlab_service_node_ops:rate_5m{environment=\"$environment\",fqdn=\"$fqdn\",monitor=\"global\",shard=\"$shard\",stage=\"$stage\",type=\"$type\"} * 300))\n      )\n      /\n      (gitlab_service_node_ops:rate_5m{environment=\"$environment\",fqdn=\"$fqdn\",monitor=\"global\",shard=\"$shard\",stage=\"$stage\",type=\"$type\"} * 300)\n    )\n  )\n  /\n  (1 + ($confidence * $confidence) / (gitlab_service_node_ops:rate_5m{environment=\"$environment\",fqdn=\"$fqdn\",monitor=\"global\",shard=\"$shard\",stage=\"$stage\",type=\"$type\"} * 300)),\n  0, 1\n)\n",
          "legendFormat": "error rate confidence lower boundary 5m"
        },
        {
          "datasource": {
            "type": "prometheus",
            "uid": "$PROMETHEUS_DS"
          },
          "expr": "(gitlab_service_node_ops:rate_1h{environment=\"$environment\",fqdn=\"$fqdn\",monitor=\"global\",shard=\"$shard\",stage=\"$stage\",type=\"$type\"} == 0)\nor\nclamp(\n  (\n    (\n      (gitlab_service_node_errors:rate_1h{environment=\"$environment\",fqdn=\"$fqdn\",monitor=\"global\",shard=\"$shard\",stage=\"$stage\",type=\"$type\"} / gitlab_service_node_ops:rate_1h{environment=\"$environment\",fqdn=\"$fqdn\",monitor=\"global\",shard=\"$shard\",stage=\"$stage\",type=\"$type\"})\n      +\n      ($confidence * $confidence) / (2 * (gitlab_service_node_ops:rate_1h{environment=\"$environment\",fqdn=\"$fqdn\",monitor=\"global\",shard=\"$shard\",stage=\"$stage\",type=\"$type\"} * 3600))\n    )\n    -\n    $confidence\n    *\n    sqrt(\n      (\n        (gitlab_service_node_errors:rate_1h{environment=\"$environment\",fqdn=\"$fqdn\",monitor=\"global\",shard=\"$shard\",stage=\"$stage\",type=\"$type\"} / gitlab_service_node_ops:rate_1h{environment=\"$environment\",fqdn=\"$fqdn\",monitor=\"global\",shard=\"$shard\",stage=\"$stage\",type=\"$type\"}) * (1 - (gitlab_service_node_errors:rate_1h{environment=\"$environment\",fqdn=\"$fqdn\",monitor=\"global\",shard=\"$shard\",stage=\"$stage\",type=\"$type\"} / gitlab_service_node_ops:rate_1h{environment=\"$environment\",fqdn=\"$fqdn\",monitor=\"global\",shard=\"$shard\",stage=\"$stage\",type=\"$type\"}))\n        +\n        ($confidence * $confidence) / (4 * (gitlab_service_node_ops:rate_1h{environment=\"$environment\",fqdn=\"$fqdn\",monitor=\"global\",shard=\"$shard\",stage=\"$stage\",type=\"$type\"} * 3600))\n      )\n      /\n      (gitlab_service_node_ops:rate_1h{environment=\"$environment\",fqdn=\"$fqdn\",monitor=\"global\",shard=\"$shard\",stage=\"$stage\",type=\"$type\"} * 3600)\n    )\n  )\n  /\n  (1 + ($confidence * $confidence) / (gitlab_service_node_ops:rate_1h{environment=\"$environment\",fqdn=\"$fqdn\",monitor=\"global\",shard=\"$shard\",stage=\"$stage\",type=\"$type\"} * 3600)),\n  0, 1\n)\n",
          "legendFormat": "error rate confidence lower boundary 1h"
        }
      ],
      "title": "Single window, 1h/5m burn-rates",
      "type": "timeseries"
    },
    {
      "content": "# Single window, 1h/5m burn-rates\n\nRemoving the 6h/30m burn-rates, this shows the same data over the 1h/5m burn-rates.\n\nThe alert will fire when the solid lines cross the dotted threshold.\n",
      "datasource": null,
      "gridPos": {
        "h": 10,
        "w": 6,
        "x": 18,
        "y": 110
      },
      "id": 8,
      "mode": "markdown",
      "title": "Help",
      "type": "text"
    },
    {
      "datasource": {
        "type": "datasource",
        "uid": "-- Mixed --"
      },
      "fieldConfig": {
        "defaults": {
          "unit": "percentunit"
        },
        "overrides": [
          {
            "matcher": {
              "id": "byName",
              "options": "6h error burn rate"
            },
            "properties": [
              {
                "id": "color",
                "value": {
                  "fixedColor": "dark-purple",
                  "mode": "shades"
                }
              },
              {
                "id": "custom.fillBelowTo",
                "value": "error rate confidence lower boundary 6h"
              },
              {
                "id": "custom.lineWidth",
                "value": 3
              }
            ]
          },
          {
            "matcher": {
              "id": "byName",
              "options": "error rate confidence lower boundary 6h"
            },
            "properties": [
              {
                "id": "color",
                "value": {
                  "fixedColor": "semi-dark-purple",
                  "mode": "shades"
                }
              },
              {
                "id": "custom.lineWidth",
                "value": 0
              }
            ]
          },
          {
            "matcher": {
              "id": "byName",
              "options": "30m error burn rate"
            },
            "properties": [
              {
                "id": "color",
                "value": {
                  "fixedColor": "light-purple",
                  "mode": "shades"
                }
              },
              {
                "id": "custom.fillBelowTo",
                "value": "error rate confidence lower boundary 30m"
              },
              {
                "id": "custom.lineWidth",
                "value": 2
              }
            ]
          },
          {
            "matcher": {
              "id": "byName",
              "options": "error rate confidence lower boundary 30m"
            },
            "properties": [
              {
                "id": "color",
                "value": {
                  "fixedColor": "super-light-purple",
                  "mode": "shades"
                }
              },
              {
                "id": "custom.lineWidth",
                "value": 0
              }
            ]
          },
          {
            "matcher": {
              "id": "byName",
              "options": "1h error burn rate"
            },
            "properties": [
              {
                "id": "color",
                "value": {
                  "fixedColor": "dark-yellow",
                  "mode": "shades"
                }
              },
              {
                "id": "custom.fillBelowTo",
                "value": "error rate confidence lower boundary 1h"
              },
              {
                "id": "custom.lineWidth",
                "value": 3
              }
            ]
          },
          {
            "matcher": {
              "id": "byName",
              "options": "error rate confidence lower boundary 1h"
            },
            "properties": [
              {
                "id": "color",
                "value": {
                  "fixedColor": "semi-dark-yellow",
                  "mode": "shades"
                }
              },
              {
                "id": "custom.lineWidth",
                "value": 0
              }
            ]
          },
          {
            "matcher": {
              "id": "byName",
              "options": "5m error burn rate"
            },
            "properties": [
              {
                "id": "color",
                "value": {
                  "fixedColor": "light-yellow",
                  "mode": "shades"
                }
              },
              {
                "id": "custom.fillBelowTo",
                "value": "error rate confidence lower boundary 5m"
              },
              {
                "id": "custom.lineWidth",
                "value": 2
              }
            ]
          },
          {
            "matcher": {
              "id": "byName",
              "options": "error rate confidence lower boundary 5m"
            },
            "properties": [
              {
                "id": "color",
                "value": {
                  "fixedColor": "super-light-yellow",
                  "mode": "shades"
                }
              },
              {
                "id": "custom.lineWidth",
                "value": 0
              }
            ]
          },
          {
            "matcher": {
              "id": "byName",
              "options": "6h error burn threshold"
            },
            "properties": [
              {
                "id": "color",
                "value": {
                  "fixedColor": "semi-dark-red",
                  "mode": "shades"
                }
              },
              {
                "id": "custom.lineStyle",
                "value": {
                  "dash": [
                    10,
                    10
                  ],
                  "fill": "dash"
                }
              },
              {
                "id": "custom.lineWidth",
                "value": 2
              }
            ]
          },
          {
            "matcher": {
              "id": "byName",
              "options": "1h error burn threshold"
            },
            "properties": [
              {
                "id": "color",
                "value": {
                  "fixedColor": "super-light-red",
                  "mode": "shades"
                }
              },
              {
                "id": "custom.lineStyle",
                "value": {
                  "dash": [
                    10,
                    10
                  ],
                  "fill": "dash"
                }
              },
              {
                "id": "custom.lineWidth",
                "value": 2
              }
            ]
          }
        ]
      },
      "gridPos": {
        "h": 10,
        "w": 18,
        "x": 0,
        "y": 120
      },
      "id": 9,
      "interval": "15s",
      "maxDataPoints": 8192,
      "pluginVersion": "v10.4.0",
      "targets": [
        {
          "datasource": {
            "type": "prometheus",
            "uid": "$PROMETHEUS_DS"
          },
          "expr": "gitlab_service_node_errors:ratio_6h{environment=\"$environment\",fqdn=\"$fqdn\",monitor=\"global\",shard=\"$shard\",stage=\"$stage\",type=\"$type\"}\n",
          "legendFormat": "6h error burn rate"
        },
        {
          "datasource": {
            "type": "prometheus",
            "uid": "$PROMETHEUS_DS"
          },
          "expr": "gitlab_service_node_errors:ratio_30m{environment=\"$environment\",fqdn=\"$fqdn\",monitor=\"global\",shard=\"$shard\",stage=\"$stage\",type=\"$type\"}\n",
          "legendFormat": "30m error burn rate"
        },
        {
          "datasource": {
            "type": "prometheus",
            "uid": "$PROMETHEUS_DS"
          },
          "expr": "(6 * avg(slo:max:events:gitlab_service_errors:ratio{monitor=\"global\", type=\"$type\"})) unless (vector($proposed_slo) > 0)",
          "legendFormat": "6h error burn threshold"
        },
        {
          "datasource": {
            "type": "prometheus",
            "uid": "$PROMETHEUS_DS"
          },
          "expr": "6 * (1 - $proposed_slo)",
          "legendFormat": "Proposed SLO @ 6h burn"
        },
        {
          "datasource": {
            "type": "prometheus",
            "uid": "$PROMETHEUS_DS"
          },
          "expr": "(gitlab_service_node_ops:rate_30m{environment=\"$environment\",fqdn=\"$fqdn\",monitor=\"global\",shard=\"$shard\",stage=\"$stage\",type=\"$type\"} == 0)\nor\nclamp(\n  (\n    (\n      (gitlab_service_node_errors:rate_30m{environment=\"$environment\",fqdn=\"$fqdn\",monitor=\"global\",shard=\"$shard\",stage=\"$stage\",type=\"$type\"} / gitlab_service_node_ops:rate_30m{environment=\"$environment\",fqdn=\"$fqdn\",monitor=\"global\",shard=\"$shard\",stage=\"$stage\",type=\"$type\"})\n      +\n      ($confidence * $confidence) / (2 * (gitlab_service_node_ops:rate_30m{environment=\"$environment\",fqdn=\"$fqdn\",monitor=\"global\",shard=\"$shard\",stage=\"$stage\",type=\"$type\"} * 1800))\n    )\n    -\n    $confidence\n    *\n    sqrt(\n      (\n        (gitlab_service_node_errors:rate_30m{environment=\"$environment\",fqdn=\"$fqdn\",monitor=\"global\",shard=\"$shard\",stage=\"$stage\",type=\"$type\"} / gitlab_service_node_ops:rate_30m{environment=\"$environment\",fqdn=\"$fqdn\",monitor=\"global\",shard=\"$shard\",stage=\"$stage\",type=\"$type\"}) * (1 - (gitlab_service_node_errors:rate_30m{environment=\"$environment\",fqdn=\"$fqdn\",monitor=\"global\",shard=\"$shard\",stage=\"$stage\",type=\"$type\"} / gitlab_service_node_ops:rate_30m{environment=\"$environment\",fqdn=\"$fqdn\",monitor=\"global\",shard=\"$shard\",stage=\"$stage\",type=\"$type\"}))\n        +\n        ($confidence * $confidence) / (4 * (gitlab_service_node_ops:rate_30m{environment=\"$environment\",fqdn=\"$fqdn\",monitor=\"global\",shard=\"$shard\",stage=\"$stage\",type=\"$type\"} * 1800))\n      )\n      /\n      (gitlab_service_node_ops:rate_30m{environment=\"$environment\",fqdn=\"$fqdn\",monitor=\"global\",shard=\"$shard\",stage=\"$stage\",type=\"$type\"} * 1800)\n    )\n  )\n  /\n  (1 + ($confidence * $confidence) / (gitlab_service_node_ops:rate_30m{environment=\"$environment\",fqdn=\"$fqdn\",monitor=\"global\",shard=\"$shard\",stage=\"$stage\",type=\"$type\"} * 1800)),\n  0, 1\n)\n",
          "legendFormat": "error rate confidence lower boundary 30m"
        }
      ],
      "title": "Single window, 6h/30m burn-rates",
      "type": "timeseries"
    },
    {
      "content": "# Single window, 6h/30m burn-rates\n\nRemoving the 1h/5m burn-rates, this shows the same data over the 6h/30m burn-rates.\n\nThe alert will fire when the solid lines cross the dotted threshold.\n",
      "datasource": null,
      "gridPos": {
        "h": 10,
        "w": 6,
        "x": 18,
        "y": 120
      },
      "id": 10,
      "mode": "markdown",
      "title": "Help",
      "type": "text"
    },
    {
      "datasource": {
        "type": "datasource",
        "uid": "-- Mixed --"
      },
      "fieldConfig": {
        "defaults": {
          "unit": "percentunit"
        },
        "overrides": [
          {
            "matcher": {
              "id": "byName",
              "options": "6h error burn rate"
            },
            "properties": [
              {
                "id": "color",
                "value": {
                  "fixedColor": "dark-purple",
                  "mode": "shades"
                }
              },
              {
                "id": "custom.fillBelowTo",
                "value": "error rate confidence lower boundary 6h"
              },
              {
                "id": "custom.lineWidth",
                "value": 3
              }
            ]
          },
          {
            "matcher": {
              "id": "byName",
              "options": "error rate confidence lower boundary 6h"
            },
            "properties": [
              {
                "id": "color",
                "value": {
                  "fixedColor": "semi-dark-purple",
                  "mode": "shades"
                }
              },
              {
                "id": "custom.lineWidth",
                "value": 0
              }
            ]
          },
          {
            "matcher": {
              "id": "byName",
              "options": "30m error burn rate"
            },
            "properties": [
              {
                "id": "color",
                "value": {
                  "fixedColor": "light-purple",
                  "mode": "shades"
                }
              },
              {
                "id": "custom.fillBelowTo",
                "value": "error rate confidence lower boundary 30m"
              },
              {
                "id": "custom.lineWidth",
                "value": 2
              }
            ]
          },
          {
            "matcher": {
              "id": "byName",
              "options": "error rate confidence lower boundary 30m"
            },
            "properties": [
              {
                "id": "color",
                "value": {
                  "fixedColor": "super-light-purple",
                  "mode": "shades"
                }
              },
              {
                "id": "custom.lineWidth",
                "value": 0
              }
            ]
          },
          {
            "matcher": {
              "id": "byName",
              "options": "1h error burn rate"
            },
            "properties": [
              {
                "id": "color",
                "value": {
                  "fixedColor": "dark-yellow",
                  "mode": "shades"
                }
              },
              {
                "id": "custom.fillBelowTo",
                "value": "error rate confidence lower boundary 1h"
              },
              {
                "id": "custom.lineWidth",
                "value": 3
              }
            ]
          },
          {
            "matcher": {
              "id": "byName",
              "options": "error rate confidence lower boundary 1h"
            },
            "properties": [
              {
                "id": "color",
                "value": {
                  "fixedColor": "semi-dark-yellow",
                  "mode": "shades"
                }
              },
              {
                "id": "custom.lineWidth",
                "value": 0
              }
            ]
          },
          {
            "matcher": {
              "id": "byName",
              "options": "5m error burn rate"
            },
            "properties": [
              {
                "id": "color",
                "value": {
                  "fixedColor": "light-yellow",
                  "mode": "shades"
                }
              },
              {
                "id": "custom.fillBelowTo",
                "value": "error rate confidence lower boundary 5m"
              },
              {
                "id": "custom.lineWidth",
                "value": 2
              }
            ]
          },
          {
            "matcher": {
              "id": "byName",
              "options": "error rate confidence lower boundary 5m"
            },
            "properties": [
              {
                "id": "color",
                "value": {
                  "fixedColor": "super-light-yellow",
                  "mode": "shades"
                }
              },
              {
                "id": "custom.lineWidth",
                "value": 0
              }
            ]
          },
          {
            "matcher": {
              "id": "byName",
              "options": "6h error burn threshold"
            },
            "properties": [
              {
                "id": "color",
                "value": {
                  "fixedColor": "semi-dark-red",
                  "mode": "shades"
                }
              },
              {
                "id": "custom.lineStyle",
                "value": {
                  "dash": [
                    10,
                    10
                  ],
                  "fill": "dash"
                }
              },
              {
                "id": "custom.lineWidth",
                "value": 2
              }
            ]
          },
          {
            "matcher": {
              "id": "byName",
              "options": "1h error burn threshold"
            },
            "properties": [
              {
                "id": "color",
                "value": {
                  "fixedColor": "super-light-red",
                  "mode": "shades"
                }
              },
              {
                "id": "custom.lineStyle",
                "value": {
                  "dash": [
                    10,
                    10
                  ],
                  "fill": "dash"
                }
              },
              {
                "id": "custom.lineWidth",
                "value": 2
              }
            ]
          }
        ]
      },
      "gridPos": {
        "h": 10,
        "w": 18,
        "x": 0,
        "y": 130
      },
      "id": 11,
      "interval": "15s",
      "maxDataPoints": 8192,
      "pluginVersion": "v10.4.0",
      "targets": [
        {
          "datasource": {
            "type": "prometheus",
            "uid": "$PROMETHEUS_DS"
          },
          "expr": "gitlab_service_node_errors:ratio_1h{environment=\"$environment\",fqdn=\"$fqdn\",monitor=\"global\",shard=\"$shard\",stage=\"$stage\",type=\"$type\"}\n",
          "legendFormat": "1h error burn rate"
        },
        {
          "datasource": {
            "type": "prometheus",
            "uid": "$PROMETHEUS_DS"
          },
          "expr": "gitlab_service_node_errors:ratio_5m{environment=\"$environment\",fqdn=\"$fqdn\",monitor=\"global\",shard=\"$shard\",stage=\"$stage\",type=\"$type\"}\n",
          "legendFormat": "5m error burn rate"
        },
        {
          "datasource": {
            "type": "prometheus",
            "uid": "$PROMETHEUS_DS"
          },
          "expr": "(gitlab_service_node_ops:rate_5m{environment=\"$environment\",fqdn=\"$fqdn\",monitor=\"global\",shard=\"$shard\",stage=\"$stage\",type=\"$type\"} == 0)\nor\nclamp(\n  (\n    (\n      (gitlab_service_node_errors:rate_5m{environment=\"$environment\",fqdn=\"$fqdn\",monitor=\"global\",shard=\"$shard\",stage=\"$stage\",type=\"$type\"} / gitlab_service_node_ops:rate_5m{environment=\"$environment\",fqdn=\"$fqdn\",monitor=\"global\",shard=\"$shard\",stage=\"$stage\",type=\"$type\"})\n      +\n      ($confidence * $confidence) / (2 * (gitlab_service_node_ops:rate_5m{environment=\"$environment\",fqdn=\"$fqdn\",monitor=\"global\",shard=\"$shard\",stage=\"$stage\",type=\"$type\"} * 300))\n    )\n    -\n    $confidence\n    *\n    sqrt(\n      (\n        (gitlab_service_node_errors:rate_5m{environment=\"$environment\",fqdn=\"$fqdn\",monitor=\"global\",shard=\"$shard\",stage=\"$stage\",type=\"$type\"} / gitlab_service_node_ops:rate_5m{environment=\"$environment\",fqdn=\"$fqdn\",monitor=\"global\",shard=\"$shard\",stage=\"$stage\",type=\"$type\"}) * (1 - (gitlab_service_node_errors:rate_5m{environment=\"$environment\",fqdn=\"$fqdn\",monitor=\"global\",shard=\"$shard\",stage=\"$stage\",type=\"$type\"} / gitlab_service_node_ops:rate_5m{environment=\"$environment\",fqdn=\"$fqdn\",monitor=\"global\",shard=\"$shard\",stage=\"$stage\",type=\"$type\"}))\n        +\n        ($confidence * $confidence) / (4 * (gitlab_service_node_ops:rate_5m{environment=\"$environment\",fqdn=\"$fqdn\",monitor=\"global\",shard=\"$shard\",stage=\"$stage\",type=\"$type\"} * 300))\n      )\n      /\n      (gitlab_service_node_ops:rate_5m{environment=\"$environment\",fqdn=\"$fqdn\",monitor=\"global\",shard=\"$shard\",stage=\"$stage\",type=\"$type\"} * 300)\n    )\n  )\n  /\n  (1 + ($confidence * $confidence) / (gitlab_service_node_ops:rate_5m{environment=\"$environment\",fqdn=\"$fqdn\",monitor=\"global\",shard=\"$shard\",stage=\"$stage\",type=\"$type\"} * 300)),\n  0, 1\n)\n",
          "legendFormat": "error rate confidence lower boundary 5m"
        },
        {
          "datasource": {
            "type": "prometheus",
            "uid": "$PROMETHEUS_DS"
          },
          "expr": "(gitlab_service_node_ops:rate_1h{environment=\"$environment\",fqdn=\"$fqdn\",monitor=\"global\",shard=\"$shard\",stage=\"$stage\",type=\"$type\"} == 0)\nor\nclamp(\n  (\n    (\n      (gitlab_service_node_errors:rate_1h{environment=\"$environment\",fqdn=\"$fqdn\",monitor=\"global\",shard=\"$shard\",stage=\"$stage\",type=\"$type\"} / gitlab_service_node_ops:rate_1h{environment=\"$environment\",fqdn=\"$fqdn\",monitor=\"global\",shard=\"$shard\",stage=\"$stage\",type=\"$type\"})\n      +\n      ($confidence * $confidence) / (2 * (gitlab_service_node_ops:rate_1h{environment=\"$environment\",fqdn=\"$fqdn\",monitor=\"global\",shard=\"$shard\",stage=\"$stage\",type=\"$type\"} * 3600))\n    )\n    -\n    $confidence\n    *\n    sqrt(\n      (\n        (gitlab_service_node_errors:rate_1h{environment=\"$environment\",fqdn=\"$fqdn\",monitor=\"global\",shard=\"$shard\",stage=\"$stage\",type=\"$type\"} / gitlab_service_node_ops:rate_1h{environment=\"$environment\",fqdn=\"$fqdn\",monitor=\"global\",shard=\"$shard\",stage=\"$stage\",type=\"$type\"}) * (1 - (gitlab_service_node_errors:rate_1h{environment=\"$environment\",fqdn=\"$fqdn\",monitor=\"global\",shard=\"$shard\",stage=\"$stage\",type=\"$type\"} / gitlab_service_node_ops:rate_1h{environment=\"$environment\",fqdn=\"$fqdn\",monitor=\"global\",shard=\"$shard\",stage=\"$stage\",type=\"$type\"}))\n        +\n        ($confidence * $confidence) / (4 * (gitlab_service_node_ops:rate_1h{environment=\"$environment\",fqdn=\"$fqdn\",monitor=\"global\",shard=\"$shard\",stage=\"$stage\",type=\"$type\"} * 3600))\n      )\n      /\n      (gitlab_service_node_ops:rate_1h{environment=\"$environment\",fqdn=\"$fqdn\",monitor=\"global\",shard=\"$shard\",stage=\"$stage\",type=\"$type\"} * 3600)\n    )\n  )\n  /\n  (1 + ($confidence * $confidence) / (gitlab_service_node_ops:rate_1h{environment=\"$environment\",fqdn=\"$fqdn\",monitor=\"global\",shard=\"$shard\",stage=\"$stage\",type=\"$type\"} * 3600)),\n  0, 1\n)\n",
          "legendFormat": "error rate confidence lower boundary 1h"
        }
      ],
      "title": "Single window, 1h/5m burn-rates, no thresholds",
      "type": "timeseries"
    },
    {
      "content": "# Single window, 1h/5m burn-rates, no thresholds\n\nSince the threshold can be relatively high, removing it can help visualise the current values better.\n",
      "datasource": null,
      "gridPos": {
        "h": 10,
        "w": 6,
        "x": 18,
        "y": 130
      },
      "id": 12,
      "mode": "markdown",
      "title": "Help",
      "type": "text"
    },
    {
      "datasource": {
        "type": "datasource",
        "uid": "-- Mixed --"
      },
      "fieldConfig": {
        "defaults": {
          "unit": "percentunit"
        },
        "overrides": [
          {
            "matcher": {
              "id": "byName",
              "options": "6h error burn rate"
            },
            "properties": [
              {
                "id": "color",
                "value": {
                  "fixedColor": "dark-purple",
                  "mode": "shades"
                }
              },
              {
                "id": "custom.fillBelowTo",
                "value": "error rate confidence lower boundary 6h"
              },
              {
                "id": "custom.lineWidth",
                "value": 3
              }
            ]
          },
          {
            "matcher": {
              "id": "byName",
              "options": "error rate confidence lower boundary 6h"
            },
            "properties": [
              {
                "id": "color",
                "value": {
                  "fixedColor": "semi-dark-purple",
                  "mode": "shades"
                }
              },
              {
                "id": "custom.lineWidth",
                "value": 0
              }
            ]
          },
          {
            "matcher": {
              "id": "byName",
              "options": "30m error burn rate"
            },
            "properties": [
              {
                "id": "color",
                "value": {
                  "fixedColor": "light-purple",
                  "mode": "shades"
                }
              },
              {
                "id": "custom.fillBelowTo",
                "value": "error rate confidence lower boundary 30m"
              },
              {
                "id": "custom.lineWidth",
                "value": 2
              }
            ]
          },
          {
            "matcher": {
              "id": "byName",
              "options": "error rate confidence lower boundary 30m"
            },
            "properties": [
              {
                "id": "color",
                "value": {
                  "fixedColor": "super-light-purple",
                  "mode": "shades"
                }
              },
              {
                "id": "custom.lineWidth",
                "value": 0
              }
            ]
          },
          {
            "matcher": {
              "id": "byName",
              "options": "1h error burn rate"
            },
            "properties": [
              {
                "id": "color",
                "value": {
                  "fixedColor": "dark-yellow",
                  "mode": "shades"
                }
              },
              {
                "id": "custom.fillBelowTo",
                "value": "error rate confidence lower boundary 1h"
              },
              {
                "id": "custom.lineWidth",
                "value": 3
              }
            ]
          },
          {
            "matcher": {
              "id": "byName",
              "options": "error rate confidence lower boundary 1h"
            },
            "properties": [
              {
                "id": "color",
                "value": {
                  "fixedColor": "semi-dark-yellow",
                  "mode": "shades"
                }
              },
              {
                "id": "custom.lineWidth",
                "value": 0
              }
            ]
          },
          {
            "matcher": {
              "id": "byName",
              "options": "5m error burn rate"
            },
            "properties": [
              {
                "id": "color",
                "value": {
                  "fixedColor": "light-yellow",
                  "mode": "shades"
                }
              },
              {
                "id": "custom.fillBelowTo",
                "value": "error rate confidence lower boundary 5m"
              },
              {
                "id": "custom.lineWidth",
                "value": 2
              }
            ]
          },
          {
            "matcher": {
              "id": "byName",
              "options": "error rate confidence lower boundary 5m"
            },
            "properties": [
              {
                "id": "color",
                "value": {
                  "fixedColor": "super-light-yellow",
                  "mode": "shades"
                }
              },
              {
                "id": "custom.lineWidth",
                "value": 0
              }
            ]
          },
          {
            "matcher": {
              "id": "byName",
              "options": "6h error burn threshold"
            },
            "properties": [
              {
                "id": "color",
                "value": {
                  "fixedColor": "semi-dark-red",
                  "mode": "shades"
                }
              },
              {
                "id": "custom.lineStyle",
                "value": {
                  "dash": [
                    10,
                    10
                  ],
                  "fill": "dash"
                }
              },
              {
                "id": "custom.lineWidth",
                "value": 2
              }
            ]
          },
          {
            "matcher": {
              "id": "byName",
              "options": "1h error burn threshold"
            },
            "properties": [
              {
                "id": "color",
                "value": {
                  "fixedColor": "super-light-red",
                  "mode": "shades"
                }
              },
              {
                "id": "custom.lineStyle",
                "value": {
                  "dash": [
                    10,
                    10
                  ],
                  "fill": "dash"
                }
              },
              {
                "id": "custom.lineWidth",
                "value": 2
              }
            ]
          }
        ]
      },
      "gridPos": {
        "h": 10,
        "w": 18,
        "x": 0,
        "y": 140
      },
      "id": 13,
      "interval": "15s",
      "maxDataPoints": 8192,
      "pluginVersion": "v10.4.0",
      "targets": [
        {
          "datasource": {
            "type": "prometheus",
            "uid": "$PROMETHEUS_DS"
          },
          "expr": "gitlab_service_node_errors:ratio_6h{environment=\"$environment\",fqdn=\"$fqdn\",monitor=\"global\",shard=\"$shard\",stage=\"$stage\",type=\"$type\"}\n",
          "legendFormat": "6h error burn rate"
        },
        {
          "datasource": {
            "type": "prometheus",
            "uid": "$PROMETHEUS_DS"
          },
          "expr": "gitlab_service_node_errors:ratio_30m{environment=\"$environment\",fqdn=\"$fqdn\",monitor=\"global\",shard=\"$shard\",stage=\"$stage\",type=\"$type\"}\n",
          "legendFormat": "30m error burn rate"
        },
        {
          "datasource": {
            "type": "prometheus",
            "uid": "$PROMETHEUS_DS"
          },
          "expr": "(gitlab_service_node_ops:rate_30m{environment=\"$environment\",fqdn=\"$fqdn\",monitor=\"global\",shard=\"$shard\",stage=\"$stage\",type=\"$type\"} == 0)\nor\nclamp(\n  (\n    (\n      (gitlab_service_node_errors:rate_30m{environment=\"$environment\",fqdn=\"$fqdn\",monitor=\"global\",shard=\"$shard\",stage=\"$stage\",type=\"$type\"} / gitlab_service_node_ops:rate_30m{environment=\"$environment\",fqdn=\"$fqdn\",monitor=\"global\",shard=\"$shard\",stage=\"$stage\",type=\"$type\"})\n      +\n      ($confidence * $confidence) / (2 * (gitlab_service_node_ops:rate_30m{environment=\"$environment\",fqdn=\"$fqdn\",monitor=\"global\",shard=\"$shard\",stage=\"$stage\",type=\"$type\"} * 1800))\n    )\n    -\n    $confidence\n    *\n    sqrt(\n      (\n        (gitlab_service_node_errors:rate_30m{environment=\"$environment\",fqdn=\"$fqdn\",monitor=\"global\",shard=\"$shard\",stage=\"$stage\",type=\"$type\"} / gitlab_service_node_ops:rate_30m{environment=\"$environment\",fqdn=\"$fqdn\",monitor=\"global\",shard=\"$shard\",stage=\"$stage\",type=\"$type\"}) * (1 - (gitlab_service_node_errors:rate_30m{environment=\"$environment\",fqdn=\"$fqdn\",monitor=\"global\",shard=\"$shard\",stage=\"$stage\",type=\"$type\"} / gitlab_service_node_ops:rate_30m{environment=\"$environment\",fqdn=\"$fqdn\",monitor=\"global\",shard=\"$shard\",stage=\"$stage\",type=\"$type\"}))\n        +\n        ($confidence * $confidence) / (4 * (gitlab_service_node_ops:rate_30m{environment=\"$environment\",fqdn=\"$fqdn\",monitor=\"global\",shard=\"$shard\",stage=\"$stage\",type=\"$type\"} * 1800))\n      )\n      /\n      (gitlab_service_node_ops:rate_30m{environment=\"$environment\",fqdn=\"$fqdn\",monitor=\"global\",shard=\"$shard\",stage=\"$stage\",type=\"$type\"} * 1800)\n    )\n  )\n  /\n  (1 + ($confidence * $confidence) / (gitlab_service_node_ops:rate_30m{environment=\"$environment\",fqdn=\"$fqdn\",monitor=\"global\",shard=\"$shard\",stage=\"$stage\",type=\"$type\"} * 1800)),\n  0, 1\n)\n",
          "legendFormat": "error rate confidence lower boundary 30m"
        }
      ],
      "title": "Single window, 6h/30m burn-rates, no thresholds",
      "type": "timeseries"
    },
    {
      "content": "# Single window, 6h/30m burn-rates, no thresholds\n\nSince the threshold can be relatively high, removing it can help visualise the current values better.\n",
      "datasource": null,
      "gridPos": {
        "h": 10,
        "w": 6,
        "x": 18,
        "y": 140
      },
      "id": 14,
      "mode": "markdown",
      "title": "Help",
      "type": "text"
    },
    {
      "content": "Made with ❤️ and [Grafonnet](https://github.com/grafana/grafonnet-lib). [Contribute to this dashboard on GitLab.com](https://gitlab.com/gitlab-com/runbooks/blob/master/dashboards)\n",
      "datasource": null,
      "gridPos": {
        "h": 2,
        "w": 24,
        "x": 0,
        "y": 110000
      },
      "id": 15,
      "mode": "markdown",
      "title": "Source",
      "type": "text"
    }
  ],
  "refresh": "",
  "rows": [

  ],
  "schemaVersion": 16,
  "style": "light",
  "tags": [
    "managed",
    "alerts",
    "alert-target",
    "general"
  ],
  "templating": {
    "list": [
      {
        "current": {
          "text": "Mimir - Gitlab Gprd",
          "value": "Mimir - Gitlab Gprd"
        },
        "hide": 0,
        "label": null,
        "name": "PROMETHEUS_DS",
        "options": [

        ],
        "query": "prometheus",
        "refresh": 1,
        "regex": "",
        "type": "datasource"
      },
      {
        "allValue": null,
        "current": {
          "text": "gprd",
          "value": "gprd"
        },
        "datasource": "$PROMETHEUS_DS",
        "hide": 0,
        "includeAll": false,
        "label": null,
        "multi": false,
        "name": "environment",
        "options": [

        ],
        "query": "label_values(gitlab_service_ops:rate_1h, environment)",
        "refresh": 1,
        "regex": "",
        "sort": 1,
        "tagValuesQuery": "",
        "tags": [

        ],
        "tagsQuery": "",
        "type": "query",
        "useTags": false
      },
      {
        "allValue": null,
        "current": {
        },
        "datasource": "$PROMETHEUS_DS",
        "hide": 0,
        "includeAll": false,
        "label": null,
        "multi": false,
        "name": "environment",
        "options": [

        ],
        "query": "label_values(gitlab_service_node_errors:ratio_1h{monitor=\"global\"}, environment)",
        "refresh": 2,
        "regex": "",
        "sort": 1,
        "tagValuesQuery": "",
        "tags": [

        ],
        "tagsQuery": "",
        "type": "query",
        "useTags": false
      },
      {
        "allValue": null,
        "current": {
        },
        "datasource": "$PROMETHEUS_DS",
        "hide": 0,
        "includeAll": false,
        "label": null,
        "multi": false,
        "name": "type",
        "options": [

        ],
        "query": "label_values(gitlab_service_node_errors:ratio_1h{environment=\"$environment\",monitor=\"global\"}, type)",
        "refresh": 2,
        "regex": "",
        "sort": 1,
        "tagValuesQuery": "",
        "tags": [

        ],
        "tagsQuery": "",
        "type": "query",
        "useTags": false
      },
      {
        "allValue": null,
        "current": {
        },
        "datasource": "$PROMETHEUS_DS",
        "hide": 0,
        "includeAll": false,
        "label": null,
        "multi": false,
        "name": "stage",
        "options": [

        ],
        "query": "label_values(gitlab_service_node_errors:ratio_1h{environment=\"$environment\",monitor=\"global\",type=\"$type\"}, stage)",
        "refresh": 2,
        "regex": "",
        "sort": 1,
        "tagValuesQuery": "",
        "tags": [

        ],
        "tagsQuery": "",
        "type": "query",
        "useTags": false
      },
      {
        "allValue": null,
        "current": {
        },
        "datasource": "$PROMETHEUS_DS",
        "hide": 0,
        "includeAll": false,
        "label": null,
        "multi": false,
        "name": "shard",
        "options": [

        ],
        "query": "label_values(gitlab_service_node_errors:ratio_1h{environment=\"$environment\",monitor=\"global\",stage=\"$stage\",type=\"$type\"}, shard)",
        "refresh": 2,
        "regex": "",
        "sort": 1,
        "tagValuesQuery": "",
        "tags": [

        ],
        "tagsQuery": "",
        "type": "query",
        "useTags": false
      },
      {
        "allValue": null,
        "current": {
        },
        "datasource": "$PROMETHEUS_DS",
        "hide": 0,
        "includeAll": false,
        "label": null,
        "multi": false,
        "name": "fqdn",
        "options": [

        ],
        "query": "label_values(gitlab_service_node_errors:ratio_1h{environment=\"$environment\",monitor=\"global\",shard=\"$shard\",stage=\"$stage\",type=\"$type\"}, fqdn)",
        "refresh": 2,
        "regex": "",
        "sort": 1,
        "tagValuesQuery": "",
        "tags": [

        ],
        "tagsQuery": "",
        "type": "query",
        "useTags": false
      },
      {
        "allValue": null,
        "current": {
          "text": "NaN",
          "value": "NaN"
        },
        "hide": 0,
        "includeAll": false,
        "label": "",
        "multi": false,
        "name": "proposed_slo",
        "options": [
          {
            "text": "NaN",
            "value": "NaN"
          },
          {
            "text": "0.9",
            "value": "0.9"
          },
          {
            "text": "0.95",
            "value": "0.95"
          },
          {
            "text": "0.99",
            "value": "0.99"
          },
          {
            "text": "0.995",
            "value": "0.995"
          },
          {
            "text": "0.999",
            "value": "0.999"
          },
          {
            "text": "0.9995",
            "value": "0.9995"
          },
          {
            "text": "0.9999",
            "value": "0.9999"
          }
        ],
        "query": "NaN,0.9,0.95,0.99,0.995,0.999,0.9995,0.9999",
        "refresh": 0,
        "type": "custom"
      },
      {
        "allValue": null,
        "current": {
          "text": "98%",
          "value": "98%"
        },
        "hide": 0,
        "includeAll": false,
        "label": "",
        "multi": false,
        "name": "confidence",
        "options": [
          {
            "text": "80% : 1.2815515639999999",
            "value": "80% : 1.2815515639999999"
          },
          {
            "text": "85% : 1.4395314720000001",
            "value": "85% : 1.4395314720000001"
          },
          {
            "text": "90% : 1.6448536250000001",
            "value": "90% : 1.6448536250000001"
          },
          {
            "text": "95% : 1.959963986",
            "value": "95% : 1.959963986"
          },
          {
            "text": "98% : 2.3263478740000001",
            "value": "98% : 2.3263478740000001"
          },
          {
            "text": "99% : 2.5758293060000002",
            "value": "99% : 2.5758293060000002"
          },
          {
            "text": "99.50% : 2.8070337699999999",
            "value": "99.50% : 2.8070337699999999"
          },
          {
            "text": "99.95% : 3.4807564000000002",
            "value": "99.95% : 3.4807564000000002"
          }
        ],
        "query": "80% : 1.2815515639999999,85% : 1.4395314720000001,90% : 1.6448536250000001,95% : 1.959963986,98% : 2.3263478740000001,99% : 2.5758293060000002,99.50% : 2.8070337699999999,99.95% : 3.4807564000000002",
        "refresh": 0,
        "type": "custom"
      }
    ]
  },
  "time": {
    "from": "now-6h/m",
    "to": "now/m"
  },
  "timepicker": {
    "refresh_intervals": [
      "1m",
      "5m",
      "10m",
      "15m",
      "30m"
    ],
    "time_options": [
      "5m",
      "15m",
      "1h",
      "6h",
      "12h",
      "24h",
      "2d",
      "7d",
      "30d"
    ]
  },
  "timezone": "utc",
  "title": "alerts: Global Service-Node-Aggregated Metrics Error SLO Analysis",
  "uid": "alerts-service_node_slo_error",
  "version": 4258
}