{
  "__inputs": [

  ],
  "__requires": [

  ],
  "annotations": {
    "list": [
      {
        "builtIn": 1,
        "datasource": "-- Grafana --",
        "enable": true,
        "hide": false,
        "iconColor": "#96D98D",
        "name": "deploy",
        "showIn": 0,
        "tags": [
          "deploy",
          "$environment"
        ],
        "type": "tags"
      },
      {
        "builtIn": 1,
        "datasource": "-- Grafana --",
        "enable": false,
        "hide": false,
        "iconColor": "#FFEE52",
        "name": "canary-deploy",
        "showIn": 0,
        "tags": [
          "deploy",
          "${environment}-cny"
        ],
        "type": "tags"
      },
      {
        "builtIn": 1,
        "datasource": "-- Grafana --",
        "enable": false,
        "hide": false,
        "iconColor": "#CA95E5",
        "name": "feature-flags",
        "showIn": 0,
        "tags": [
          "feature-flag",
          "${environment}"
        ],
        "type": "tags"
      }
    ]
  },
  "description": "Uploaded by https://gitlab.com/gitlab-com/runbooks/-/jobs/8096318834 at Wed Oct 16 05:31:29 UTC 2024",
  "editable": false,
  "gnetId": null,
  "graphTooltip": 1,
  "hideControls": false,
  "id": null,
  "links": [

  ],
  "panels": [
    {
      "aliasColors": {
      },
      "bars": false,
      "dashLength": 10,
      "dashes": false,
      "datasource": "$PROMETHEUS_DS",
      "decimals": 1,
      "description": "",
      "fill": 0,
      "fillGradient": 0,
      "gridPos": {
        "h": 10,
        "w": 12,
        "x": 0,
        "y": 0
      },
      "id": 3168042924,
      "legend": {
        "alignAsTable": true,
        "avg": true,
        "current": true,
        "hideEmpty": true,
        "max": true,
        "min": true,
        "rightSide": false,
        "show": true,
        "sideWidth": null,
        "total": false,
        "values": true
      },
      "lines": true,
      "linewidth": 2,
      "links": [

      ],
      "nullPointMode": "null",
      "options": {
        "dataLinks": [
          {
            "targetBlank": true,
            "title": "ElasticSearch: Rails logs",
            "url": "https://log.gprd.gitlab.net/app/kibana#/discover?_a=(columns:!(json.status,json.method,json.meta.caller_id,json.meta.feature_category,json.path,json.request_urgency,json.duration_s,json.target_duration_s),filters:!((meta:(index:'7092c4e2-4eb5-46f2-8305-a7da2edad090',key:json.subcomponent,negate:!t,params:graphql_json,type:phrase),query:(match:(json.subcomponent:(query:graphql_json,type:phrase)))),(meta:(index:'7092c4e2-4eb5-46f2-8305-a7da2edad090',key:json.type.keyword,params:'$type',type:phrase),query:(match:(json.type.keyword:(query:'$type',type:phrase)))),(meta:(index:'7092c4e2-4eb5-46f2-8305-a7da2edad090',key:json.controller.keyword,params:'$controller',type:phrase),query:(match:(json.controller.keyword:(query:'$controller',type:phrase))))),index:'7092c4e2-4eb5-46f2-8305-a7da2edad090',query:(language:kuery,query:'json.action.keyword:${action:lucene}'))&_g=(time:(from:'${__from:date:iso}',to:'${__to:date:iso}'))"
          }
        ]
      },
      "percentage": false,
      "pointradius": 5,
      "points": false,
      "renderer": "flot",
      "repeat": null,
      "seriesOverrides": [

      ],
      "spaceLength": 10,
      "stableId": "request-rate",
      "stack": false,
      "steppedLine": false,
      "targets": [
        {
          "expr": "sum by (controller, action) (avg_over_time(controller_action:gitlab_transaction_duration_seconds_count:rate1m{action=~\"$action\",controller=\"$controller\",environment=\"$environment\",stage=\"$stage\",type=\"$type\"}[$__interval]))",
          "format": "time_series",
          "interval": "1m",
          "intervalFactor": 1,
          "legendFormat": "{{ action }}",
          "refId": "A"
        }
      ],
      "thresholds": [

      ],
      "timeFrom": null,
      "timeShift": null,
      "title": "Request Rate",
      "tooltip": {
        "shared": true,
        "sort": 2,
        "value_type": "individual"
      },
      "type": "graph",
      "xaxis": {
        "buckets": null,
        "mode": "time",
        "name": null,
        "show": true,
        "values": [

        ]
      },
      "yaxes": [
        {
          "format": "ops",
          "label": "Requests per Second",
          "logBase": 1,
          "max": null,
          "min": 0,
          "show": true
        },
        {
          "format": "short",
          "label": null,
          "logBase": 1,
          "max": 1,
          "min": 0,
          "show": false
        }
      ]
    },
    {
      "aliasColors": {
      },
      "bars": false,
      "dashLength": 10,
      "dashes": false,
      "datasource": "$PROMETHEUS_DS",
      "decimals": 0,
      "description": "",
      "fill": 0,
      "fillGradient": 0,
      "gridPos": {
        "h": 10,
        "w": 12,
        "x": 12,
        "y": 0
      },
      "id": 2021894936,
      "legend": {
        "alignAsTable": true,
        "avg": true,
        "current": true,
        "hideEmpty": true,
        "max": true,
        "min": true,
        "rightSide": false,
        "show": true,
        "sideWidth": null,
        "total": false,
        "values": true
      },
      "lines": true,
      "linewidth": 2,
      "links": [

      ],
      "nullPointMode": "null",
      "options": {
        "dataLinks": [
          {
            "targetBlank": true,
            "title": "ElasticSearch: Rails logs",
            "url": "https://log.gprd.gitlab.net/app/kibana#/discover?_a=(columns:!(json.status,json.method,json.meta.caller_id,json.meta.feature_category,json.path,json.request_urgency,json.duration_s,json.target_duration_s),filters:!((meta:(index:'7092c4e2-4eb5-46f2-8305-a7da2edad090',key:json.subcomponent,negate:!t,params:graphql_json,type:phrase),query:(match:(json.subcomponent:(query:graphql_json,type:phrase)))),(meta:(index:'7092c4e2-4eb5-46f2-8305-a7da2edad090',key:json.type.keyword,params:'$type',type:phrase),query:(match:(json.type.keyword:(query:'$type',type:phrase)))),(meta:(index:'7092c4e2-4eb5-46f2-8305-a7da2edad090',key:json.controller.keyword,params:'$controller',type:phrase),query:(match:(json.controller.keyword:(query:'$controller',type:phrase))))),index:'7092c4e2-4eb5-46f2-8305-a7da2edad090',query:(language:kuery,query:'json.action.keyword:${action:lucene}'))&_g=(time:(from:'${__from:date:iso}',to:'${__to:date:iso}'))"
          }
        ]
      },
      "percentage": false,
      "pointradius": 5,
      "points": false,
      "renderer": "flot",
      "repeat": null,
      "seriesOverrides": [

      ],
      "spaceLength": 10,
      "stableId": "latency",
      "stack": false,
      "steppedLine": false,
      "targets": [
        {
          "expr": "avg by (controller, action) (avg_over_time(controller_action:gitlab_transaction_duration_seconds:p99{action=~\"$action\",controller=\"$controller\",environment=\"$environment\",stage=\"$stage\",type=\"$type\"}[$__interval]))",
          "format": "time_series",
          "interval": "1m",
          "intervalFactor": 1,
          "legendFormat": "{{ action }} - p99",
          "refId": "A"
        },
        {
          "expr": "avg by (controller, action) (avg_over_time(controller_action:gitlab_transaction_duration_seconds:p95{action=~\"$action\",controller=\"$controller\",environment=\"$environment\",stage=\"$stage\",type=\"$type\"}[$__interval]))",
          "format": "time_series",
          "interval": "1m",
          "intervalFactor": 1,
          "legendFormat": "{{ action }} - p95",
          "refId": "B"
        },
        {
          "expr": "sum by (controller, action) (avg_over_time(controller_action:gitlab_transaction_duration_seconds_sum:rate1m{action=~\"$action\",controller=\"$controller\",environment=\"$environment\",stage=\"$stage\",type=\"$type\"}[$__interval]))\n/\nsum by (controller, action) (avg_over_time(controller_action:gitlab_transaction_duration_seconds_count:rate1m{action=~\"$action\",controller=\"$controller\",environment=\"$environment\",stage=\"$stage\",type=\"$type\"}[$__interval]))\n",
          "format": "time_series",
          "interval": "1m",
          "intervalFactor": 1,
          "legendFormat": "{{ action }} - mean",
          "refId": "C"
        }
      ],
      "thresholds": [

      ],
      "timeFrom": null,
      "timeShift": null,
      "title": "Latency",
      "tooltip": {
        "shared": true,
        "sort": 2,
        "value_type": "individual"
      },
      "type": "graph",
      "xaxis": {
        "buckets": null,
        "mode": "time",
        "name": null,
        "show": true,
        "values": [

        ]
      },
      "yaxes": [
        {
          "format": "s",
          "label": "",
          "logBase": 1,
          "max": null,
          "min": 0,
          "show": true
        },
        {
          "format": "short",
          "label": null,
          "logBase": 1,
          "max": 1,
          "min": 0,
          "show": false
        }
      ]
    },
    {
      "collapse": false,
      "collapsed": false,
      "gridPos": {
        "h": 1,
        "w": 24,
        "x": 0,
        "y": 201
      },
      "id": 4,
      "panels": [

      ],
      "repeat": null,
      "repeatIteration": null,
      "repeatRowId": null,
      "showTitle": true,
      "title": "SQL",
      "titleSize": "h6",
      "type": "row"
    },
    {
      "aliasColors": {
      },
      "bars": false,
      "dashLength": 10,
      "dashes": false,
      "datasource": "$PROMETHEUS_DS",
      "decimals": 1,
      "description": "",
      "fill": 0,
      "fillGradient": 0,
      "gridPos": {
        "h": 10,
        "w": 6,
        "x": 0,
        "y": 202
      },
      "id": 1266521010,
      "legend": {
        "alignAsTable": true,
        "avg": true,
        "current": true,
        "hideEmpty": true,
        "max": true,
        "min": true,
        "rightSide": false,
        "show": true,
        "sideWidth": null,
        "total": false,
        "values": true
      },
      "lines": true,
      "linewidth": 2,
      "links": [

      ],
      "nullPointMode": "null",
      "percentage": false,
      "pointradius": 5,
      "points": false,
      "renderer": "flot",
      "repeat": null,
      "seriesOverrides": [

      ],
      "spaceLength": 10,
      "stableId": "total-sql-queries-rate",
      "stack": false,
      "steppedLine": false,
      "targets": [
        {
          "expr": "sum by (action) (\n  rate(\n    gitlab_transaction_db_count_total{action=~\"$action\",controller=\"$controller\",environment=\"$environment\",stage=\"$stage\",type=\"$type\"}[$__interval]\n  )\n)\n",
          "format": "time_series",
          "interval": "1m",
          "intervalFactor": 1,
          "legendFormat": "Total - {{ action }}",
          "refId": "A"
        },
        {
          "expr": "sum by (action) (\n  rate(\n    gitlab_transaction_db_primary_count_total{action=~\"$action\",controller=\"$controller\",environment=\"$environment\",stage=\"$stage\",type=\"$type\"}[$__interval]\n  )\n)\n",
          "format": "time_series",
          "interval": "1m",
          "intervalFactor": 1,
          "legendFormat": "Primary - {{ action }}",
          "refId": "B"
        },
        {
          "expr": "sum by (action) (\n  rate(\n    gitlab_transaction_db_replica_count_total{action=~\"$action\",controller=\"$controller\",environment=\"$environment\",stage=\"$stage\",type=\"$type\"}[$__interval]\n  )\n)\n",
          "format": "time_series",
          "interval": "1m",
          "intervalFactor": 1,
          "legendFormat": "Replica - {{ action }}",
          "refId": "C"
        }
      ],
      "thresholds": [

      ],
      "timeFrom": null,
      "timeShift": null,
      "title": "Total SQL Queries Rate",
      "tooltip": {
        "shared": true,
        "sort": 2,
        "value_type": "individual"
      },
      "type": "graph",
      "xaxis": {
        "buckets": null,
        "mode": "time",
        "name": null,
        "show": true,
        "values": [

        ]
      },
      "yaxes": [
        {
          "format": "ops",
          "label": "",
          "logBase": 1,
          "max": null,
          "min": 0,
          "show": true
        },
        {
          "format": "short",
          "label": null,
          "logBase": 1,
          "max": 1,
          "min": 0,
          "show": false
        }
      ]
    },
    {
      "aliasColors": {
      },
      "bars": false,
      "dashLength": 10,
      "dashes": false,
      "datasource": "$PROMETHEUS_DS",
      "decimals": 1,
      "description": "",
      "fill": 0,
      "fillGradient": 0,
      "gridPos": {
        "h": 10,
        "w": 6,
        "x": 6,
        "y": 202
      },
      "id": 2155933118,
      "legend": {
        "alignAsTable": true,
        "avg": true,
        "current": true,
        "hideEmpty": true,
        "max": true,
        "min": true,
        "rightSide": false,
        "show": true,
        "sideWidth": null,
        "total": false,
        "values": true
      },
      "lines": true,
      "linewidth": 2,
      "links": [

      ],
      "nullPointMode": "null",
      "percentage": false,
      "pointradius": 5,
      "points": false,
      "renderer": "flot",
      "repeat": null,
      "seriesOverrides": [

      ],
      "spaceLength": 10,
      "stableId": "sql-requests-per-controller-request",
      "stack": false,
      "steppedLine": false,
      "targets": [
        {
          "expr": "sum by (action) (\n  rate(gitlab_sql_duration_seconds_count{action=~\"$action\",controller=\"$controller\",environment=\"$environment\",stage=\"$stage\",type=\"$type\"}[$__interval])\n)\n/\nsum by (action) (\n  avg_over_time(\n    controller_action:gitlab_transaction_duration_seconds_count:rate1m{action=~\"$action\",controller=\"$controller\",environment=\"$environment\",stage=\"$stage\",type=\"$type\"}[$__interval]\n  )\n)\n",
          "format": "time_series",
          "interval": "1m",
          "intervalFactor": 1,
          "legendFormat": "{{ action }}",
          "refId": "A"
        }
      ],
      "thresholds": [

      ],
      "timeFrom": null,
      "timeShift": null,
      "title": "SQL Requests per Controller Request",
      "tooltip": {
        "shared": true,
        "sort": 2,
        "value_type": "individual"
      },
      "type": "graph",
      "xaxis": {
        "buckets": null,
        "mode": "time",
        "name": null,
        "show": true,
        "values": [

        ]
      },
      "yaxes": [
        {
          "format": "short",
          "label": "",
          "logBase": 1,
          "max": null,
          "min": 0,
          "show": true
        },
        {
          "format": "short",
          "label": null,
          "logBase": 1,
          "max": 1,
          "min": 0,
          "show": false
        }
      ]
    },
    {
      "aliasColors": {
      },
      "bars": false,
      "dashLength": 10,
      "dashes": false,
      "datasource": "$PROMETHEUS_DS",
      "decimals": 0,
      "description": "",
      "fill": 0,
      "fillGradient": 0,
      "gridPos": {
        "h": 10,
        "w": 6,
        "x": 12,
        "y": 202
      },
      "id": 1618528745,
      "legend": {
        "alignAsTable": true,
        "avg": true,
        "current": true,
        "hideEmpty": true,
        "max": true,
        "min": true,
        "rightSide": false,
        "show": true,
        "sideWidth": null,
        "total": false,
        "values": true
      },
      "lines": true,
      "linewidth": 2,
      "links": [

      ],
      "nullPointMode": "null",
      "percentage": false,
      "pointradius": 5,
      "points": false,
      "renderer": "flot",
      "repeat": null,
      "seriesOverrides": [

      ],
      "spaceLength": 10,
      "stableId": "sql-latency-per-controller-request",
      "stack": false,
      "steppedLine": false,
      "targets": [
        {
          "expr": "sum by (controller, action) (avg_over_time(controller_action:gitlab_sql_duration_seconds_sum:rate1m{action=~\"$action\",controller=\"$controller\",environment=\"$environment\",stage=\"$stage\",type=\"$type\"}[$__interval]))\n/\nsum by (controller, action) (avg_over_time(controller_action:gitlab_transaction_duration_seconds_count:rate1m{action=~\"$action\",controller=\"$controller\",environment=\"$environment\",stage=\"$stage\",type=\"$type\"}[$__interval]))\n",
          "format": "time_series",
          "interval": "1m",
          "intervalFactor": 1,
          "legendFormat": "{{ action }}",
          "refId": "A"
        }
      ],
      "thresholds": [

      ],
      "timeFrom": null,
      "timeShift": null,
      "title": "SQL Latency per Controller Request",
      "tooltip": {
        "shared": true,
        "sort": 2,
        "value_type": "individual"
      },
      "type": "graph",
      "xaxis": {
        "buckets": null,
        "mode": "time",
        "name": null,
        "show": true,
        "values": [

        ]
      },
      "yaxes": [
        {
          "format": "s",
          "label": "",
          "logBase": 1,
          "max": null,
          "min": 0,
          "show": true
        },
        {
          "format": "short",
          "label": null,
          "logBase": 1,
          "max": 1,
          "min": 0,
          "show": false
        }
      ]
    },
    {
      "aliasColors": {
      },
      "bars": false,
      "dashLength": 10,
      "dashes": false,
      "datasource": "$PROMETHEUS_DS",
      "decimals": 0,
      "description": "",
      "fill": 0,
      "fillGradient": 0,
      "gridPos": {
        "h": 10,
        "w": 6,
        "x": 18,
        "y": 202
      },
      "id": 3735068459,
      "legend": {
        "alignAsTable": true,
        "avg": true,
        "current": true,
        "hideEmpty": true,
        "max": true,
        "min": true,
        "rightSide": false,
        "show": true,
        "sideWidth": null,
        "total": false,
        "values": true
      },
      "lines": true,
      "linewidth": 2,
      "links": [

      ],
      "nullPointMode": "null",
      "percentage": false,
      "pointradius": 5,
      "points": false,
      "renderer": "flot",
      "repeat": null,
      "seriesOverrides": [

      ],
      "spaceLength": 10,
      "stableId": "sql-latency-per-sql-request",
      "stack": false,
      "steppedLine": false,
      "targets": [
        {
          "expr": "sum by (action) (\n  rate(gitlab_sql_duration_seconds_sum{action=~\"$action\",controller=\"$controller\",environment=\"$environment\",stage=\"$stage\",type=\"$type\"}[$__interval])\n)\n/\nsum by (action) (\n  rate(gitlab_sql_duration_seconds_count{action=~\"$action\",controller=\"$controller\",environment=\"$environment\",stage=\"$stage\",type=\"$type\"}[$__interval])\n)\n",
          "format": "time_series",
          "interval": "1m",
          "intervalFactor": 1,
          "legendFormat": "{{ action }}",
          "refId": "A"
        }
      ],
      "thresholds": [

      ],
      "timeFrom": null,
      "timeShift": null,
      "title": "SQL Latency per SQL Request",
      "tooltip": {
        "shared": true,
        "sort": 2,
        "value_type": "individual"
      },
      "type": "graph",
      "xaxis": {
        "buckets": null,
        "mode": "time",
        "name": null,
        "show": true,
        "values": [

        ]
      },
      "yaxes": [
        {
          "format": "s",
          "label": "",
          "logBase": 1,
          "max": null,
          "min": 0,
          "show": true
        },
        {
          "format": "short",
          "label": null,
          "logBase": 1,
          "max": 1,
          "min": 0,
          "show": false
        }
      ]
    },
    {
      "collapse": false,
      "collapsed": false,
      "gridPos": {
        "h": 1,
        "w": 24,
        "x": 0,
        "y": 301
      },
      "id": 9,
      "panels": [

      ],
      "repeat": null,
      "repeatIteration": null,
      "repeatRowId": null,
      "showTitle": true,
      "title": "SQL Transaction",
      "titleSize": "h6",
      "type": "row"
    },
    {
      "aliasColors": {
      },
      "bars": false,
      "dashLength": 10,
      "dashes": false,
      "datasource": "$PROMETHEUS_DS",
      "decimals": 1,
      "description": "",
      "fill": 0,
      "fillGradient": 0,
      "gridPos": {
        "h": 10,
        "w": 12,
        "x": 0,
        "y": 302
      },
      "id": 3519794113,
      "legend": {
        "alignAsTable": true,
        "avg": true,
        "current": true,
        "hideEmpty": true,
        "max": true,
        "min": true,
        "rightSide": false,
        "show": true,
        "sideWidth": null,
        "total": false,
        "values": true
      },
      "lines": true,
      "linewidth": 2,
      "links": [

      ],
      "nullPointMode": "null",
      "percentage": false,
      "pointradius": 5,
      "points": false,
      "renderer": "flot",
      "repeat": null,
      "seriesOverrides": [

      ],
      "spaceLength": 10,
      "stableId": "sql-transaction-per-controller-request",
      "stack": false,
      "steppedLine": false,
      "targets": [
        {
          "expr": "sum by (action) (\n  rate(gitlab_database_transaction_seconds_count{action=~\"$action\",controller=\"$controller\",environment=\"$environment\",stage=\"$stage\",type=\"$type\"}[$__interval])\n)\n",
          "format": "time_series",
          "interval": "1m",
          "intervalFactor": 1,
          "legendFormat": "{{ action }}",
          "refId": "A"
        }
      ],
      "thresholds": [

      ],
      "timeFrom": null,
      "timeShift": null,
      "title": "SQL Transactions per Controller Request",
      "tooltip": {
        "shared": true,
        "sort": 2,
        "value_type": "individual"
      },
      "type": "graph",
      "xaxis": {
        "buckets": null,
        "mode": "time",
        "name": null,
        "show": true,
        "values": [

        ]
      },
      "yaxes": [
        {
          "format": "short",
          "label": "",
          "logBase": 1,
          "max": null,
          "min": 0,
          "show": true
        },
        {
          "format": "short",
          "label": null,
          "logBase": 1,
          "max": 1,
          "min": 0,
          "show": false
        }
      ]
    },
    {
      "aliasColors": {
      },
      "bars": false,
      "dashLength": 10,
      "dashes": false,
      "datasource": "$PROMETHEUS_DS",
      "decimals": 0,
      "description": "",
      "fill": 0,
      "fillGradient": 0,
      "gridPos": {
        "h": 10,
        "w": 12,
        "x": 12,
        "y": 302
      },
      "id": 4153233807,
      "legend": {
        "alignAsTable": true,
        "avg": true,
        "current": true,
        "hideEmpty": true,
        "max": true,
        "min": true,
        "rightSide": false,
        "show": true,
        "sideWidth": null,
        "total": false,
        "values": true
      },
      "lines": true,
      "linewidth": 2,
      "links": [

      ],
      "nullPointMode": "null",
      "percentage": false,
      "pointradius": 5,
      "points": false,
      "renderer": "flot",
      "repeat": null,
      "seriesOverrides": [

      ],
      "spaceLength": 10,
      "stableId": "avg-duration-per-sql-transaction",
      "stack": false,
      "steppedLine": false,
      "targets": [
        {
          "expr": "sum(rate(gitlab_database_transaction_seconds_sum{action=~\"$action\",controller=\"$controller\",environment=\"$environment\",stage=\"$stage\",type=\"$type\"}[$__interval])) by (action)\n/\nsum(rate(gitlab_database_transaction_seconds_count{action=~\"$action\",controller=\"$controller\",environment=\"$environment\",stage=\"$stage\",type=\"$type\"}[$__interval])) by (action)\n",
          "format": "time_series",
          "interval": "1m",
          "intervalFactor": 1,
          "legendFormat": "{{ action }}",
          "refId": "A"
        }
      ],
      "thresholds": [

      ],
      "timeFrom": null,
      "timeShift": null,
      "title": "Average Duration per SQL Transaction",
      "tooltip": {
        "shared": true,
        "sort": 2,
        "value_type": "individual"
      },
      "type": "graph",
      "xaxis": {
        "buckets": null,
        "mode": "time",
        "name": null,
        "show": true,
        "values": [

        ]
      },
      "yaxes": [
        {
          "format": "s",
          "label": "",
          "logBase": 1,
          "max": null,
          "min": 0,
          "show": true
        },
        {
          "format": "short",
          "label": null,
          "logBase": 1,
          "max": 1,
          "min": 0,
          "show": false
        }
      ]
    },
    {
      "collapse": false,
      "collapsed": false,
      "gridPos": {
        "h": 1,
        "w": 24,
        "x": 0,
        "y": 401
      },
      "id": 12,
      "panels": [

      ],
      "repeat": null,
      "repeatIteration": null,
      "repeatRowId": null,
      "showTitle": true,
      "title": "Cache",
      "titleSize": "h6",
      "type": "row"
    },
    {
      "aliasColors": {
      },
      "bars": false,
      "dashLength": 10,
      "dashes": false,
      "datasource": "$PROMETHEUS_DS",
      "decimals": 1,
      "description": "",
      "fill": 0,
      "fillGradient": 0,
      "gridPos": {
        "h": 10,
        "w": 24,
        "x": 0,
        "y": 402
      },
      "id": 162987554,
      "legend": {
        "alignAsTable": true,
        "avg": true,
        "current": true,
        "hideEmpty": true,
        "max": true,
        "min": true,
        "rightSide": false,
        "show": true,
        "sideWidth": null,
        "total": false,
        "values": true
      },
      "lines": true,
      "linewidth": 2,
      "links": [

      ],
      "nullPointMode": "null",
      "percentage": false,
      "pointradius": 5,
      "points": false,
      "renderer": "flot",
      "repeat": null,
      "seriesOverrides": [

      ],
      "spaceLength": 10,
      "stableId": "cache-operations",
      "stack": false,
      "steppedLine": false,
      "targets": [
        {
          "expr": "sum by (action, operation) (\n  rate(gitlab_cache_operations_total{action=~\"$action\",controller=\"$controller\",environment=\"$environment\",stage=\"$stage\",type=\"$type\"}[$__interval])\n)\n",
          "format": "time_series",
          "interval": "1m",
          "intervalFactor": 1,
          "legendFormat": "{{ action }} - {{ operation }}",
          "refId": "A"
        }
      ],
      "thresholds": [

      ],
      "timeFrom": null,
      "timeShift": null,
      "title": "Cache Operations",
      "tooltip": {
        "shared": true,
        "sort": 2,
        "value_type": "individual"
      },
      "type": "graph",
      "xaxis": {
        "buckets": null,
        "mode": "time",
        "name": null,
        "show": true,
        "values": [

        ]
      },
      "yaxes": [
        {
          "format": "short",
          "label": "",
          "logBase": 1,
          "max": null,
          "min": 0,
          "show": true
        },
        {
          "format": "short",
          "label": null,
          "logBase": 1,
          "max": 1,
          "min": 0,
          "show": false
        }
      ]
    },
    {
      "collapse": false,
      "collapsed": false,
      "gridPos": {
        "h": 1,
        "w": 24,
        "x": 0,
        "y": 501
      },
      "id": 14,
      "panels": [

      ],
      "repeat": null,
      "repeatIteration": null,
      "repeatRowId": null,
      "showTitle": true,
      "title": "Elasticsearch",
      "titleSize": "h6",
      "type": "row"
    },
    {
      "aliasColors": {
      },
      "bars": false,
      "dashLength": 10,
      "dashes": false,
      "datasource": "$PROMETHEUS_DS",
      "decimals": 2,
      "description": "",
      "fill": 0,
      "fillGradient": 0,
      "gridPos": {
        "h": 10,
        "w": 24,
        "x": 0,
        "y": 502
      },
      "id": 15,
      "legend": {
        "alignAsTable": true,
        "avg": true,
        "current": true,
        "hideEmpty": true,
        "max": true,
        "min": true,
        "rightSide": false,
        "show": true,
        "sideWidth": null,
        "total": false,
        "values": true
      },
      "lines": true,
      "linewidth": 2,
      "links": [

      ],
      "nullPointMode": "null",
      "percentage": false,
      "pointradius": 5,
      "points": false,
      "renderer": "flot",
      "repeat": null,
      "seriesOverrides": [

      ],
      "spaceLength": 10,
      "stack": false,
      "steppedLine": false,
      "targets": [
        {
          "expr": "histogram_quantile(0.5, sum by (controller, action, le) (\n  rate(http_elasticsearch_requests_duration_seconds_bucket{action=~\"$action\",controller=\"$controller\",environment=\"$environment\",stage=\"$stage\",type=\"$type\"}[$__interval])\n))\n",
          "format": "time_series",
          "interval": "1m",
          "intervalFactor": 1,
          "legendFormat": "{{ action }} p50",
          "refId": "A"
        },
        {
          "expr": "histogram_quantile(0.9, sum by (controller, action, le) (\n  rate(http_elasticsearch_requests_duration_seconds_bucket{action=~\"$action\",controller=\"$controller\",environment=\"$environment\",stage=\"$stage\",type=\"$type\"}[$__interval])\n))\n",
          "format": "time_series",
          "interval": "1m",
          "intervalFactor": 1,
          "legendFormat": "{{ action }} p90",
          "refId": "B"
        },
        {
          "expr": "histogram_quantile(0.95, sum by (controller, action, le) (\n  rate(http_elasticsearch_requests_duration_seconds_bucket{action=~\"$action\",controller=\"$controller\",environment=\"$environment\",stage=\"$stage\",type=\"$type\"}[$__interval])\n))\n",
          "format": "time_series",
          "interval": "1m",
          "intervalFactor": 1,
          "legendFormat": "{{ action }} p95",
          "refId": "C"
        },
        {
          "expr": "histogram_quantile(0.99, sum by (controller, action, le) (\n  rate(http_elasticsearch_requests_duration_seconds_bucket{action=~\"$action\",controller=\"$controller\",environment=\"$environment\",stage=\"$stage\",type=\"$type\"}[$__interval])\n))\n",
          "format": "time_series",
          "interval": "1m",
          "intervalFactor": 1,
          "legendFormat": "{{ action }} p99",
          "refId": "D"
        }
      ],
      "thresholds": [

      ],
      "timeFrom": null,
      "timeShift": null,
      "title": "Elasticsearch Time",
      "tooltip": {
        "shared": true,
        "sort": 2,
        "value_type": "individual"
      },
      "type": "graph",
      "xaxis": {
        "buckets": null,
        "mode": "time",
        "name": null,
        "show": true,
        "values": [

        ]
      },
      "yaxes": [
        {
          "format": "s",
          "label": "Duration",
          "logBase": 1,
          "max": null,
          "min": 0,
          "show": true
        },
        {
          "format": "short",
          "label": null,
          "logBase": 1,
          "max": 1,
          "min": 0,
          "show": false
        }
      ]
    },
    {
      "collapse": false,
      "collapsed": false,
      "gridPos": {
        "h": 1,
        "w": 24,
        "x": 0,
        "y": 601
      },
      "id": 16,
      "panels": [

      ],
      "repeat": null,
      "repeatIteration": null,
      "repeatRowId": null,
      "showTitle": true,
      "title": "External HTTP",
      "titleSize": "h6",
      "type": "row"
    },
    {
      "aliasColors": {
      },
      "bars": false,
      "dashLength": 10,
      "dashes": false,
      "datasource": "$PROMETHEUS_DS",
      "decimals": 1,
      "description": "",
      "fill": 0,
      "fillGradient": 0,
      "gridPos": {
        "h": 10,
        "w": 8,
        "x": 0,
        "y": 602
      },
      "id": 3239630680,
      "legend": {
        "alignAsTable": true,
        "avg": true,
        "current": true,
        "hideEmpty": true,
        "max": true,
        "min": true,
        "rightSide": false,
        "show": true,
        "sideWidth": null,
        "total": false,
        "values": true
      },
      "lines": true,
      "linewidth": 2,
      "links": [

      ],
      "nullPointMode": "null",
      "percentage": false,
      "pointradius": 5,
      "points": false,
      "renderer": "flot",
      "repeat": null,
      "seriesOverrides": [

      ],
      "spaceLength": 10,
      "stableId": "external-http",
      "stack": false,
      "steppedLine": false,
      "targets": [
        {
          "expr": "sum by (controller, action, code) (\nrate(gitlab_external_http_total{action=~\"$action\",controller=\"$controller\",environment=\"$environment\",stage=\"$stage\",type=\"$type\"}[$__interval])\n)\n",
          "format": "time_series",
          "interval": "1m",
          "intervalFactor": 1,
          "legendFormat": "{{ action }} - {{ code }}",
          "refId": "A"
        }
      ],
      "thresholds": [

      ],
      "timeFrom": null,
      "timeShift": null,
      "title": "External HTTP calls",
      "tooltip": {
        "shared": true,
        "sort": 2,
        "value_type": "individual"
      },
      "type": "graph",
      "xaxis": {
        "buckets": null,
        "mode": "time",
        "name": null,
        "show": true,
        "values": [

        ]
      },
      "yaxes": [
        {
          "format": "ops",
          "label": "",
          "logBase": 1,
          "max": null,
          "min": 0,
          "show": true
        },
        {
          "format": "short",
          "label": null,
          "logBase": 1,
          "max": 1,
          "min": 0,
          "show": false
        }
      ]
    },
    {
      "aliasColors": {
      },
      "bars": false,
      "dashLength": 10,
      "dashes": false,
      "datasource": "$PROMETHEUS_DS",
      "decimals": 0,
      "description": "",
      "fill": 0,
      "fillGradient": 0,
      "gridPos": {
        "h": 10,
        "w": 8,
        "x": 8,
        "y": 602
      },
      "id": 3995046926,
      "legend": {
        "alignAsTable": true,
        "avg": true,
        "current": true,
        "hideEmpty": true,
        "max": true,
        "min": true,
        "rightSide": false,
        "show": true,
        "sideWidth": null,
        "total": false,
        "values": true
      },
      "lines": true,
      "linewidth": 2,
      "links": [

      ],
      "nullPointMode": "null",
      "percentage": false,
      "pointradius": 5,
      "points": false,
      "renderer": "flot",
      "repeat": null,
      "seriesOverrides": [

      ],
      "spaceLength": 10,
      "stableId": "external-http-latency",
      "stack": false,
      "steppedLine": false,
      "targets": [
        {
          "expr": "histogram_quantile(\n  0.5,\n  sum(\n    rate(\n      gitlab_external_http_duration_seconds_bucket{action=~\"$action\",controller=\"$controller\",environment=\"$environment\",stage=\"$stage\",type=\"$type\"}[5m]\n    )\n  ) by (action, le)\n)\n",
          "format": "time_series",
          "interval": "1m",
          "intervalFactor": 1,
          "legendFormat": "{{ action }} - p50",
          "refId": "A"
        },
        {
          "expr": "histogram_quantile(\n  0.9,\n  sum(\n    rate(\n      gitlab_external_http_duration_seconds_bucket{action=~\"$action\",controller=\"$controller\",environment=\"$environment\",stage=\"$stage\",type=\"$type\"}[5m]\n    )\n  ) by (action, le)\n)\n",
          "format": "time_series",
          "interval": "1m",
          "intervalFactor": 1,
          "legendFormat": "{{ action }} - p90",
          "refId": "B"
        },
        {
          "expr": "histogram_quantile(\n  0.99,\n  sum(\n    rate(\n      gitlab_external_http_duration_seconds_bucket{action=~\"$action\",controller=\"$controller\",environment=\"$environment\",stage=\"$stage\",type=\"$type\"}[5m]\n    )\n  ) by (action, le)\n)\n",
          "format": "time_series",
          "interval": "1m",
          "intervalFactor": 1,
          "legendFormat": "{{ action }} - p99",
          "refId": "C"
        }
      ],
      "thresholds": [

      ],
      "timeFrom": null,
      "timeShift": null,
      "title": "External HTTP Latency per call",
      "tooltip": {
        "shared": true,
        "sort": 2,
        "value_type": "individual"
      },
      "type": "graph",
      "xaxis": {
        "buckets": null,
        "mode": "time",
        "name": null,
        "show": true,
        "values": [

        ]
      },
      "yaxes": [
        {
          "format": "s",
          "label": "",
          "logBase": 1,
          "max": null,
          "min": 0,
          "show": true
        },
        {
          "format": "short",
          "label": null,
          "logBase": 1,
          "max": 1,
          "min": 0,
          "show": false
        }
      ]
    },
    {
      "content": "The metrics displayed in this row indicate all the network requests made inside a Rails process via the HTTP protocol. The requests may be triggered by Gitlab::HTTP utility inside the application code base or by any 3rd-party gems. We don't differentiate the destinations. So, the metrics include both internal/external dependencies.\n* [📖 Kibana: External HTTP logs](https://log.gprd.gitlab.net/app/kibana#/discover?_a=(columns:!(json.status,json.method,json.meta.caller_id,json.meta.feature_category,json.path,json.request_urgency,json.duration_s,json.target_duration_s),filters:!((meta:(index:'7092c4e2-4eb5-46f2-8305-a7da2edad090',key:json.subcomponent,negate:!t,params:graphql_json,type:phrase),query:(match:(json.subcomponent:(query:graphql_json,type:phrase)))),(meta:(index:'7092c4e2-4eb5-46f2-8305-a7da2edad090',key:json.type,params:'$type',type:phrase),query:(match:(json.type:(query:'$type',type:phrase)))),(meta:(index:'7092c4e2-4eb5-46f2-8305-a7da2edad090',key:exists,type:json.external_http_count,value:exists),query:(exists:(field:json.external_http_count)))),index:'7092c4e2-4eb5-46f2-8305-a7da2edad090')&_g=(time:(from:'${__from:date:iso}',to:'${__to:date:iso}')))\n",
      "datasource": null,
      "gridPos": {
        "h": 10,
        "w": 8,
        "x": 16,
        "y": 602
      },
      "id": 19,
      "mode": "markdown",
      "title": "Extra links",
      "type": "text"
    },
    {
      "content": "Made with ❤️ and [Grafonnet](https://github.com/grafana/grafonnet-lib). [Contribute to this dashboard on GitLab.com](https://gitlab.com/gitlab-com/runbooks/blob/master/dashboards)\n",
      "datasource": null,
      "gridPos": {
        "h": 2,
        "w": 24,
        "x": 0,
        "y": 110000
      },
      "id": 20,
      "mode": "markdown",
      "title": "Source",
      "type": "text"
    }
  ],
  "refresh": "",
  "rows": [

  ],
  "schemaVersion": 16,
  "style": "light",
  "tags": [
    "managed",
    "general",
    "detail"
  ],
  "templating": {
    "list": [
      {
        "current": {
          "text": "Mimir - Gitlab Gprd",
          "value": "Mimir - Gitlab Gprd"
        },
        "hide": 0,
        "label": null,
        "name": "PROMETHEUS_DS",
        "options": [

        ],
        "query": "prometheus",
        "refresh": 1,
        "regex": "",
        "type": "datasource"
      },
      {
        "allValue": null,
        "current": {
          "text": "gprd",
          "value": "gprd"
        },
        "datasource": "$PROMETHEUS_DS",
        "hide": 0,
        "includeAll": false,
        "label": null,
        "multi": false,
        "name": "environment",
        "options": [

        ],
        "query": "label_values(gitlab_service_ops:rate_1h, environment)",
        "refresh": 1,
        "regex": "",
        "sort": 1,
        "tagValuesQuery": "",
        "tags": [

        ],
        "tagsQuery": "",
        "type": "query",
        "useTags": false
      },
      {
        "allValue": null,
        "current": {
          "text": "web",
          "value": "web"
        },
        "datasource": "$PROMETHEUS_DS",
        "hide": 0,
        "includeAll": false,
        "label": null,
        "multi": false,
        "name": "type",
        "options": [

        ],
        "query": "label_values(gitlab_component_service:mapping{component=\"rails_request\", environment=\"$environment\"}, type)",
        "refresh": 1,
        "regex": "",
        "sort": 1,
        "tagValuesQuery": "",
        "tags": [

        ],
        "tagsQuery": "",
        "type": "query",
        "useTags": false
      },
      {
        "allValue": null,
        "current": {
          "text": "main",
          "value": "main"
        },
        "hide": 0,
        "includeAll": false,
        "label": "",
        "multi": false,
        "name": "stage",
        "options": [
          {
            "text": "main",
            "value": "main"
          },
          {
            "text": "cny",
            "value": "cny"
          },
          {
            "text": "",
            "value": ""
          }
        ],
        "query": "main,cny,",
        "refresh": 0,
        "type": "custom"
      },
      {
        "allValue": null,
        "current": {
          "text": "Grape",
          "value": "Grape"
        },
        "datasource": "$PROMETHEUS_DS",
        "hide": 0,
        "includeAll": false,
        "label": null,
        "multi": false,
        "name": "controller",
        "options": [

        ],
        "query": "label_values(controller_action:gitlab_transaction_duration_seconds_count:rate1m{environment=\"$environment\", type=\"$type\"}, controller)",
        "refresh": 1,
        "regex": "",
        "sort": 1,
        "tagValuesQuery": "",
        "tags": [

        ],
        "tagsQuery": "",
        "type": "query",
        "useTags": false
      },
      {
        "allValue": null,
        "current": {
          "text": "GET /api/projects",
          "value": "GET /api/projects"
        },
        "datasource": "$PROMETHEUS_DS",
        "hide": 0,
        "includeAll": true,
        "label": null,
        "multi": true,
        "name": "action",
        "options": [

        ],
        "query": "label_values(controller_action:gitlab_transaction_duration_seconds_count:rate1m{environment=\"$environment\", type=\"$type\", controller=\"$controller\"}, action)",
        "refresh": 1,
        "regex": "",
        "sort": 1,
        "tagValuesQuery": "",
        "tags": [

        ],
        "tagsQuery": "",
        "type": "query",
        "useTags": false
      }
    ]
  },
  "time": {
    "from": "now-6h/m",
    "to": "now/m"
  },
  "timepicker": {
    "refresh_intervals": [
      "1m",
      "5m",
      "10m",
      "15m",
      "30m"
    ],
    "time_options": [
      "5m",
      "15m",
      "1h",
      "6h",
      "12h",
      "24h",
      "2d",
      "7d",
      "30d"
    ]
  },
  "timezone": "utc",
  "title": "general: Rails Controller",
  "uid": "general-rails-controller",
  "version": 1430
}