{
  "__inputs": [

  ],
  "__requires": [

  ],
  "annotations": {
    "list": [
      {
        "builtIn": 1,
        "datasource": "-- Grafana --",
        "enable": true,
        "hide": false,
        "iconColor": "#96D98D",
        "name": "deploy",
        "showIn": 0,
        "tags": [
          "deploy",
          "$environment"
        ],
        "type": "tags"
      },
      {
        "builtIn": 1,
        "datasource": "-- Grafana --",
        "enable": false,
        "hide": false,
        "iconColor": "#FFEE52",
        "name": "canary-deploy",
        "showIn": 0,
        "tags": [
          "deploy",
          "${environment}-cny"
        ],
        "type": "tags"
      },
      {
        "builtIn": 1,
        "datasource": "-- Grafana --",
        "enable": false,
        "hide": false,
        "iconColor": "#CA95E5",
        "name": "feature-flags",
        "showIn": 0,
        "tags": [
          "feature-flag",
          "${environment}"
        ],
        "type": "tags"
      }
    ]
  },
  "description": "Uploaded by https://gitlab.com/gitlab-com/runbooks/-/jobs/8096318834 at Wed Oct 16 05:32:16 UTC 2024",
  "editable": false,
  "gnetId": null,
  "graphTooltip": 1,
  "hideControls": false,
  "id": null,
  "links": [

  ],
  "panels": [
    {
      "collapse": false,
      "collapsed": false,
      "gridPos": {
        "h": 1,
        "w": 24,
        "x": 0,
        "y": 0
      },
      "id": 2,
      "panels": [

      ],
      "repeat": null,
      "repeatIteration": null,
      "repeatRowId": null,
      "showTitle": true,
      "title": "Feature Status",
      "titleSize": "h6",
      "type": "row"
    },
    {
      "aliasColors": {
      },
      "bars": false,
      "dashLength": 10,
      "dashes": false,
      "datasource": "$PROMETHEUS_DS",
      "decimals": 0,
      "description": "",
      "fill": 0,
      "fillGradient": 0,
      "gridPos": {
        "h": 10,
        "w": 24,
        "x": 0,
        "y": 1
      },
      "id": 3,
      "legend": {
        "alignAsTable": true,
        "avg": true,
        "current": true,
        "hideEmpty": true,
        "max": true,
        "min": true,
        "rightSide": false,
        "show": true,
        "sideWidth": null,
        "total": false,
        "values": true
      },
      "lines": true,
      "linewidth": 2,
      "links": [

      ],
      "nullPointMode": "null",
      "percentage": false,
      "pointradius": 5,
      "points": false,
      "renderer": "flot",
      "repeat": null,
      "seriesOverrides": [

      ],
      "spaceLength": 10,
      "stack": false,
      "steppedLine": false,
      "targets": [
        {
          "expr": "sum(rate(gitaly_feature_flag_checks_total{env=\"$environment\"}[$__rate_interval])) by (flag, enabled)\n",
          "format": "time_series",
          "interval": "1m",
          "intervalFactor": 1,
          "legendFormat": "{{flag}}: {{enabled}}",
          "refId": "A"
        }
      ],
      "thresholds": [

      ],
      "timeFrom": null,
      "timeShift": null,
      "title": "Feature Flags",
      "tooltip": {
        "shared": true,
        "sort": 2,
        "value_type": "individual"
      },
      "type": "graph",
      "xaxis": {
        "buckets": null,
        "mode": "time",
        "name": null,
        "show": true,
        "values": [

        ]
      },
      "yaxes": [
        {
          "format": "short",
          "label": "",
          "logBase": 1,
          "max": null,
          "min": 0,
          "show": true
        },
        {
          "format": "short",
          "label": null,
          "logBase": 1,
          "max": 1,
          "min": 0,
          "show": false
        }
      ]
    },
    {
      "datasource": {
        "uid": "$PROMETHEUS_DS"
      },
      "description": "This graph represents the percentage of requests that succeed.",
      "fieldConfig": {
        "defaults": {
          "color": {
            "mode": "palette-classic"
          },
          "custom": {
            "axisBorderShow": false,
            "axisCenteredZero": false,
            "axisColorMode": "text",
            "axisPlacement": "auto",
            "barAlignment": 0,
            "drawStyle": "line",
            "fillOpacity": 10,
            "gradientMode": "none",
            "insertNulls": false,
            "lineInterpolation": "linear",
            "lineWidth": 1,
            "pointSize": 5,
            "scaleDistribution": {
              "type": "linear"
            },
            "showPoints": "never",
            "spanNulls": true,
            "thresholdsStyle": {
              "mode": "line+area"
            }
          },
          "decimals": 2,
          "links": [

          ],
          "mappings": [

          ],
          "max": 1,
          "min": 0,
          "thresholds": {
            "mode": "absolute",
            "steps": [
              {
                "color": "red",
                "value": null
              },
              {
                "color": "orange",
                "value": 0.9
              },
              {
                "color": "transparent",
                "value": 0.999
              }
            ]
          },
          "unit": "percentunit"
        },
        "overrides": [

        ]
      },
      "gridPos": {
        "h": 10,
        "w": 24,
        "x": 0,
        "y": 11
      },
      "id": 4,
      "options": {
        "legend": {
          "calcs": [
            "mean",
            "min"
          ],
          "displayMode": "list",
          "placement": "bottom",
          "showLegend": true
        }
      },
      "targets": [
        {
          "datasource": {
            "type": "prometheus",
            "uid": "$PROMETHEUS_DS"
          },
          "expr": "1 - (sum(gitaly:grpc_server_handled_total:error_rate1m{environment=\"$environment\",grpc_method=\"$method\"}) without (grpc_code) / gitaly:grpc_server_handled_total:rate1m{environment=\"$environment\",grpc_method=\"$method\"})\n",
          "format": "time_series",
          "intervalFactor": 2,
          "legendFormat": "stage: {{stage}}, shard: {{shard}}",
          "range": true
        }
      ],
      "title": "Success Ratio (SLA)",
      "type": "timeseries"
    },
    {
      "datasource": {
        "uid": "$PROMETHEUS_DS"
      },
      "description": "",
      "fieldConfig": {
        "defaults": {
          "color": {
            "mode": "palette-classic"
          },
          "custom": {
            "axisBorderShow": false,
            "axisCenteredZero": false,
            "axisColorMode": "text",
            "axisPlacement": "auto",
            "barAlignment": 0,
            "drawStyle": "line",
            "fillOpacity": 10,
            "gradientMode": "none",
            "insertNulls": false,
            "lineInterpolation": "linear",
            "lineWidth": 1,
            "pointSize": 5,
            "scaleDistribution": {
              "type": "linear"
            },
            "showPoints": "never",
            "spanNulls": true,
            "thresholdsStyle": {
              "mode": "off"
            }
          },
          "decimals": null,
          "links": [

          ],
          "mappings": [

          ],
          "max": null,
          "min": 0,
          "thresholds": null,
          "unit": "reqps"
        },
        "overrides": [

        ]
      },
      "gridPos": {
        "h": 5,
        "w": 8,
        "x": 0,
        "y": 100
      },
      "id": 5,
      "options": {
        "legend": {
          "calcs": [
            "mean",
            "max"
          ],
          "displayMode": "list",
          "placement": "bottom",
          "showLegend": true
        }
      },
      "targets": [
        {
          "datasource": {
            "type": "prometheus",
            "uid": "$PROMETHEUS_DS"
          },
          "expr": "sum(gitaly:grpc_server_handled_total:rate1m{environment=\"$environment\",grpc_method=\"$method\"}) by (grpc_method)\n",
          "format": "time_series",
          "intervalFactor": 2,
          "legendFormat": "{{grpc_method}}",
          "range": true
        }
      ],
      "title": "Total Rate",
      "type": "timeseries"
    },
    {
      "datasource": {
        "uid": "$PROMETHEUS_DS"
      },
      "description": "",
      "fieldConfig": {
        "defaults": {
          "color": {
            "mode": "palette-classic"
          },
          "custom": {
            "axisBorderShow": false,
            "axisCenteredZero": false,
            "axisColorMode": "text",
            "axisPlacement": "auto",
            "barAlignment": 0,
            "drawStyle": "line",
            "fillOpacity": 10,
            "gradientMode": "none",
            "insertNulls": false,
            "lineInterpolation": "linear",
            "lineWidth": 1,
            "pointSize": 5,
            "scaleDistribution": {
              "type": "linear"
            },
            "showPoints": "never",
            "spanNulls": true,
            "thresholdsStyle": {
              "mode": "off"
            }
          },
          "decimals": null,
          "links": [

          ],
          "mappings": [

          ],
          "max": null,
          "min": 0,
          "thresholds": null,
          "unit": "reqps"
        },
        "overrides": [

        ]
      },
      "gridPos": {
        "h": 5,
        "w": 8,
        "x": 8,
        "y": 100
      },
      "id": 6,
      "options": {
        "legend": {
          "calcs": [
            "mean",
            "max"
          ],
          "displayMode": "list",
          "placement": "bottom",
          "showLegend": true
        }
      },
      "targets": [
        {
          "datasource": {
            "type": "prometheus",
            "uid": "$PROMETHEUS_DS"
          },
          "expr": "sum(gitaly:grpc_server_handled_total:rate1m{environment=\"$environment\",grpc_method=\"$method\"} - sum(gitaly:grpc_server_handled_total:error_rate1m{environment=\"$environment\",grpc_method=\"$method\"}) without (grpc_code))\n",
          "format": "time_series",
          "intervalFactor": 2,
          "legendFormat": "Success",
          "range": true
        }
      ],
      "title": "Success Rate",
      "type": "timeseries"
    },
    {
      "datasource": {
        "uid": "$PROMETHEUS_DS"
      },
      "description": "",
      "fieldConfig": {
        "defaults": {
          "color": {
            "mode": "palette-classic"
          },
          "custom": {
            "axisBorderShow": false,
            "axisCenteredZero": false,
            "axisColorMode": "text",
            "axisPlacement": "auto",
            "barAlignment": 0,
            "drawStyle": "line",
            "fillOpacity": 10,
            "gradientMode": "none",
            "insertNulls": false,
            "lineInterpolation": "linear",
            "lineWidth": 1,
            "pointSize": 5,
            "scaleDistribution": {
              "type": "linear"
            },
            "showPoints": "never",
            "spanNulls": true,
            "thresholdsStyle": {
              "mode": "off"
            }
          },
          "decimals": null,
          "links": [

          ],
          "mappings": [

          ],
          "max": null,
          "min": 0,
          "thresholds": null,
          "unit": "reqps"
        },
        "overrides": [

        ]
      },
      "gridPos": {
        "h": 5,
        "w": 8,
        "x": 16,
        "y": 100
      },
      "id": 7,
      "options": {
        "legend": {
          "calcs": [
            "mean",
            "max"
          ],
          "displayMode": "list",
          "placement": "bottom",
          "showLegend": true
        }
      },
      "targets": [
        {
          "datasource": {
            "type": "prometheus",
            "uid": "$PROMETHEUS_DS"
          },
          "expr": "sum(gitaly:grpc_server_handled_total:error_rate1m{environment=\"$environment\",grpc_method=\"$method\"}) by (grpc_code)\n",
          "format": "time_series",
          "intervalFactor": 2,
          "legendFormat": "{{grpc_code}}",
          "range": true
        }
      ],
      "title": "Failure Rate",
      "type": "timeseries"
    },
    {
      "datasource": {
        "uid": "$PROMETHEUS_DS"
      },
      "description": "",
      "fieldConfig": {
        "defaults": {
          "color": {
            "mode": "palette-classic"
          },
          "custom": {
            "axisBorderShow": false,
            "axisCenteredZero": false,
            "axisColorMode": "text",
            "axisPlacement": "auto",
            "barAlignment": 0,
            "drawStyle": "line",
            "fillOpacity": 0,
            "gradientMode": "none",
            "insertNulls": false,
            "lineInterpolation": "linear",
            "lineWidth": 1,
            "pointSize": 5,
            "scaleDistribution": {
              "log": 10,
              "type": "log"
            },
            "showPoints": "never",
            "spanNulls": true,
            "thresholdsStyle": {
              "mode": "off"
            }
          },
          "decimals": null,
          "links": [

          ],
          "mappings": [

          ],
          "max": null,
          "min": 0,
          "thresholds": null,
          "unit": "ms"
        },
        "overrides": [

        ]
      },
      "gridPos": {
        "h": 10,
        "w": 24,
        "x": 0,
        "y": 200
      },
      "id": 8,
      "options": {
        "legend": {
          "calcs": [
            "mean"
          ],
          "displayMode": "list",
          "placement": "bottom",
          "showLegend": true
        }
      },
      "targets": [
        {
          "expr": "histogram_quantile(0.99, sum(gitaly:grpc_server_handling_seconds_bucket:rate1m{environment=\"$environment\",grpc_method=\"$method\"}) by (le)) * 1000\n",
          "legendFormat": "P99"
        },
        {
          "expr": "histogram_quantile(0.95, sum(gitaly:grpc_server_handling_seconds_bucket:rate1m{environment=\"$environment\",grpc_method=\"$method\"}) by (le)) * 1000\n",
          "legendFormat": "P95"
        },
        {
          "expr": "histogram_quantile(0.5, sum(gitaly:grpc_server_handling_seconds_bucket:rate1m{environment=\"$environment\",grpc_method=\"$method\"}) by (le)) * 1000\n",
          "legendFormat": "P50"
        },
        {
          "expr": "avg(1000 * avg(gitaly:grpc_server_handling_seconds:avg5m{environment=\"$environment\",grpc_method=\"$method\"}))\n",
          "legendFormat": "mean"
        }
      ],
      "title": "Latency",
      "type": "timeseries"
    },
    {
      "datasource": {
        "uid": "$PROMETHEUS_DS"
      },
      "description": "",
      "fieldConfig": {
        "defaults": {
          "color": {
            "mode": "palette-classic"
          },
          "custom": {
            "axisBorderShow": false,
            "axisCenteredZero": false,
            "axisColorMode": "text",
            "axisPlacement": "auto",
            "barAlignment": 0,
            "drawStyle": "line",
            "fillOpacity": 0,
            "gradientMode": "none",
            "insertNulls": false,
            "lineInterpolation": "linear",
            "lineWidth": 1,
            "pointSize": 5,
            "scaleDistribution": {
              "log": 10,
              "type": "log"
            },
            "showPoints": "never",
            "spanNulls": true,
            "thresholdsStyle": {
              "mode": "off"
            }
          },
          "decimals": null,
          "links": [

          ],
          "mappings": [

          ],
          "max": null,
          "min": 0,
          "thresholds": null,
          "unit": "s"
        },
        "overrides": [

        ]
      },
      "gridPos": {
        "h": 10,
        "w": 24,
        "x": 0,
        "y": 210
      },
      "id": 9,
      "options": {
        "legend": {
          "calcs": [

          ],
          "displayMode": "list",
          "placement": "bottom",
          "showLegend": true
        }
      },
      "targets": [
        {
          "datasource": {
            "type": "prometheus",
            "uid": "$PROMETHEUS_DS"
          },
          "expr": "sum by(subcmd) (\n  rate(\n    gitaly_command_cpu_seconds_total{environment=\"$environment\",grpc_method=\"$method\"}[$__rate_interval]\n  )\n)\n",
          "format": "time_series",
          "intervalFactor": 2,
          "legendFormat": "{{subcmd}}",
          "range": true
        }
      ],
      "title": "Per-Git-command latency",
      "type": "timeseries"
    },
    {
      "datasource": {
        "uid": "$PROMETHEUS_DS"
      },
      "description": "",
      "fieldConfig": {
        "defaults": {
          "color": {
            "mode": "palette-classic"
          },
          "custom": {
            "axisBorderShow": false,
            "axisCenteredZero": false,
            "axisColorMode": "text",
            "axisPlacement": "auto",
            "barAlignment": 0,
            "drawStyle": "line",
            "fillOpacity": 0,
            "gradientMode": "none",
            "insertNulls": false,
            "lineInterpolation": "linear",
            "lineWidth": 2,
            "pointSize": 5,
            "scaleDistribution": {
              "type": "linear"
            },
            "showPoints": "never",
            "spanNulls": true,
            "thresholdsStyle": {
              "mode": "off"
            }
          },
          "decimals": null,
          "links": [

          ],
          "mappings": [

          ],
          "max": null,
          "min": 0,
          "thresholds": null,
          "unit": "reqps"
        },
        "overrides": [

        ]
      },
      "gridPos": {
        "h": 10,
        "w": 24,
        "x": 0,
        "y": 220
      },
      "id": 10,
      "options": {
        "legend": {
          "calcs": [
            "mean",
            "max",
            "min"
          ],
          "displayMode": "list",
          "placement": "bottom",
          "showLegend": true
        }
      },
      "targets": [
        {
          "expr": "sum(rate(grpc_server_handled_total{environment=\"$environment\",grpc_method=\"$method\"}[1m]))\n",
          "legendFormat": "now"
        },
        {
          "expr": "sum(rate(grpc_server_handled_total{environment=\"$environment\",grpc_method=\"$method\"}[1m] offset 1w))\n",
          "legendFormat": "last week"
        }
      ],
      "title": "Calls per Second per Tier",
      "type": "timeseries"
    },
    {
      "datasource": {
        "uid": "$PROMETHEUS_DS"
      },
      "description": "",
      "fieldConfig": {
        "defaults": {
          "color": {
            "mode": "palette-classic"
          },
          "custom": {
            "axisBorderShow": false,
            "axisCenteredZero": false,
            "axisColorMode": "text",
            "axisPlacement": "auto",
            "barAlignment": 0,
            "drawStyle": "line",
            "fillOpacity": 10,
            "gradientMode": "none",
            "insertNulls": false,
            "lineInterpolation": "linear",
            "lineWidth": 1,
            "pointSize": 5,
            "scaleDistribution": {
              "log": 10,
              "type": "log"
            },
            "showPoints": "never",
            "spanNulls": true,
            "thresholdsStyle": {
              "mode": "off"
            }
          },
          "decimals": null,
          "links": [

          ],
          "mappings": [

          ],
          "max": null,
          "min": 0,
          "thresholds": null,
          "unit": "reqps"
        },
        "overrides": [

        ]
      },
      "gridPos": {
        "h": 10,
        "w": 24,
        "x": 0,
        "y": 230
      },
      "id": 11,
      "options": {
        "legend": {
          "calcs": [

          ],
          "displayMode": "list",
          "placement": "bottom",
          "showLegend": true
        }
      },
      "targets": [
        {
          "expr": "sum(gitaly:grpc_server_handled_total:rate1m {environment=\"$environment\",grpc_method=\"$method\"})\n",
          "legendFormat": "rate (1m)"
        },
        {
          "expr": "sum(gitaly:grpc_server_handled_total:rate1m{environment=\"$environment\",grpc_method=\"$method\"} offset 1w)\n",
          "legendFormat": "rate (1m) -1w"
        }
      ],
      "title": "Call Rate vs 1 week prior (log₁₀)",
      "type": "timeseries"
    },
    {
      "datasource": {
        "uid": "$PROMETHEUS_DS"
      },
      "description": "",
      "fieldConfig": {
        "defaults": {
          "color": {
            "mode": "palette-classic"
          },
          "custom": {
            "axisBorderShow": false,
            "axisCenteredZero": false,
            "axisColorMode": "text",
            "axisPlacement": "auto",
            "barAlignment": 0,
            "drawStyle": "line",
            "fillOpacity": 0,
            "gradientMode": "none",
            "insertNulls": false,
            "lineInterpolation": "linear",
            "lineWidth": 1,
            "pointSize": 5,
            "scaleDistribution": {
              "type": "linear"
            },
            "showPoints": "never",
            "spanNulls": true,
            "thresholdsStyle": {
              "mode": "off"
            }
          },
          "decimals": null,
          "links": [

          ],
          "mappings": [

          ],
          "max": null,
          "min": 0,
          "thresholds": null,
          "unit": "reqps"
        },
        "overrides": [

        ]
      },
      "gridPos": {
        "h": 10,
        "w": 24,
        "x": 0,
        "y": 240
      },
      "id": 12,
      "options": {
        "legend": {
          "calcs": [

          ],
          "displayMode": "list",
          "placement": "bottom",
          "showLegend": true
        }
      },
      "targets": [
        {
          "datasource": {
            "type": "prometheus",
            "uid": "$PROMETHEUS_DS"
          },
          "expr": "sum(rate(grpc_server_handled_total{environment=\"$environment\",grpc_method=\"$method\"}[10m])) BY (fqdn)\n",
          "format": "time_series",
          "intervalFactor": 2,
          "legendFormat": "{{ fqdn }}",
          "range": true
        }
      ],
      "title": "Server Breakdown",
      "type": "timeseries"
    },
    {
      "datasource": {
        "uid": "$PROMETHEUS_DS"
      },
      "description": "",
      "fieldConfig": {
        "defaults": {
          "color": {
            "mode": "palette-classic"
          },
          "custom": {
            "axisBorderShow": false,
            "axisCenteredZero": false,
            "axisColorMode": "text",
            "axisPlacement": "auto",
            "barAlignment": 0,
            "drawStyle": "line",
            "fillOpacity": 10,
            "gradientMode": "none",
            "insertNulls": false,
            "lineInterpolation": "linear",
            "lineWidth": 1,
            "pointSize": 5,
            "scaleDistribution": {
              "log": 10,
              "type": "log"
            },
            "showPoints": "never",
            "spanNulls": true,
            "thresholdsStyle": {
              "mode": "off"
            }
          },
          "decimals": null,
          "links": [

          ],
          "mappings": [

          ],
          "max": null,
          "min": 0,
          "thresholds": null,
          "unit": "short"
        },
        "overrides": [

        ]
      },
      "gridPos": {
        "h": 10,
        "w": 24,
        "x": 0,
        "y": 250
      },
      "id": 13,
      "options": {
        "legend": {
          "calcs": [

          ],
          "displayMode": "list",
          "placement": "bottom",
          "showLegend": true
        }
      },
      "targets": [
        {
          "expr": "gitaly:grpc_server_handled_total:error_rate1m{environment=\"$environment\",grpc_method=\"$method\"}\n",
          "legendFormat": "{{ grpc_code }}"
        },
        {
          "expr": "gitaly:grpc_server_handled_total:error_avg_rate12h{environment=\"$environment\",grpc_method=\"$method\"}\n",
          "legendFormat": "12 hour avg"
        },
        {
          "expr": "gitaly:grpc_server_handled_total:error_avg_rate12h{environment=\"$environment\",grpc_method=\"$method\"} + gitaly:grpc_server_handled_total:error_rate1m_stddev_over_time12h{environment=\"$environment\",grpc_method=\"$method\"}\n",
          "legendFormat": "12 hour 2σ"
        }
      ],
      "title": "12 hour error anomaly rates (log₁₀)",
      "type": "timeseries"
    },
    {
      "content": "Made with ❤️ and [Grafonnet](https://github.com/grafana/grafonnet-lib). [Contribute to this dashboard on GitLab.com](https://gitlab.com/gitlab-com/runbooks/blob/master/dashboards)\n",
      "datasource": null,
      "gridPos": {
        "h": 2,
        "w": 24,
        "x": 0,
        "y": 110000
      },
      "id": 14,
      "mode": "markdown",
      "title": "Source",
      "type": "text"
    }
  ],
  "refresh": "",
  "rows": [

  ],
  "schemaVersion": 16,
  "style": "light",
  "tags": [
    "managed",
    "gitaly",
    "gitaly",
    "type:gitaly"
  ],
  "templating": {
    "list": [
      {
        "current": {
          "text": "Mimir - Gitlab Gprd",
          "value": "Mimir - Gitlab Gprd"
        },
        "hide": 0,
        "label": null,
        "name": "PROMETHEUS_DS",
        "options": [

        ],
        "query": "prometheus",
        "refresh": 1,
        "regex": "",
        "type": "datasource"
      },
      {
        "allValue": null,
        "current": {
          "text": "gprd",
          "value": "gprd"
        },
        "datasource": "$PROMETHEUS_DS",
        "hide": 0,
        "includeAll": false,
        "label": null,
        "multi": false,
        "name": "environment",
        "options": [

        ],
        "query": "label_values(gitlab_service_ops:rate_1h, environment)",
        "refresh": 1,
        "regex": "",
        "sort": 1,
        "tagValuesQuery": "",
        "tags": [

        ],
        "tagsQuery": "",
        "type": "query",
        "useTags": false
      },
      {
        "allValue": null,
        "current": {
        },
        "datasource": "$PROMETHEUS_DS",
        "hide": 0,
        "includeAll": false,
        "label": null,
        "multi": false,
        "name": "method",
        "options": [

        ],
        "query": "label_values(gitaly:grpc_server_handled_total:rate1m{env=\"$environment\"}, grpc_method)",
        "refresh": 1,
        "regex": "",
        "sort": 1,
        "tagValuesQuery": "",
        "tags": [

        ],
        "tagsQuery": "",
        "type": "query",
        "useTags": false
      }
    ]
  },
  "time": {
    "from": "now-6h/m",
    "to": "now/m"
  },
  "timepicker": {
    "refresh_intervals": [
      "1m",
      "5m",
      "10m",
      "15m",
      "30m"
    ],
    "time_options": [
      "5m",
      "15m",
      "1h",
      "6h",
      "12h",
      "24h",
      "2d",
      "7d",
      "30d"
    ]
  },
  "timezone": "utc",
  "title": "gitaly: Gitaly Feature Status",
  "uid": "gitaly-feature-status",
  "version": 235
}